dump.vcd
$date
	Sat May 23 14:42:33 2020
$end
$version
	Bluespec VCD dumper 2.1
$end
$timescale
	1 us
$end
$scope module main $end
$scope module top $end
$var reg 1 ! CLK $end
$var reg 1 ! CLK $end
$var reg 1 " CAN_FIRE_RL_done $end
$var reg 1 # CAN_FIRE_RL_pipe $end
$var reg 71 $ IF_s2_reg_id_ex_3_BITS_203_TO_197_6_EQ_0b11001_ETC___d156 $end
$var reg 106 % IF_s2_reg_id_ex_3_BITS_203_TO_197_6_EQ_0b11001_ETC___d157 $end
$var reg 1 & RST_N $end
$var reg 1 ' WILL_FIRE_RL_done $end
$var reg 1 ( WILL_FIRE_RL_pipe $end
$var reg 32 ) b__h4634 $end
$var reg 123 * s1_reg_if_id_3_BITS_24_TO_20_0_CONCAT_s1_reg_i_ETC___d43 $end
$var reg 74 + s1_reg_if_id_3_BITS_31_TO_25_3_CONCAT_s1_reg_i_ETC___d41 $end
$var reg 96 , s1_reg_if_id_3_BITS_31_TO_25_3_CONCAT_s1_reg_i_ETC___d42 $end
$var reg 236 - s1_reg_if_id_3_BITS_63_TO_32_5_CONCAT_s1_reg_i_ETC___d52 $end
$var reg 140 . s1_reg_if_id_3_BITS_6_TO_0_6_CONCAT_s1_reg_if__ETC___d44 $end
$var reg 236 / s2_reg_id_ex___d53 $end
$var reg 106 0 s3_reg_ex_mem___d158 $end
$var reg 1 > regfile_flag $end
$var reg 64 ? s1_reg_if_id $end
$var reg 32 @ s1_reg_pc $end
$var reg 236 A s2_reg_id_ex $end
$var reg 106 B s3_reg_ex_mem $end
$var reg 38 C s4_reg_mem_wb $end
$var reg 32 D step $end
$upscope $end
$upscope $end
$enddefinitions $end
1!
0"
1#
b11101010101010101010101010101010101010101010101010101001010101010001010 $
b1010101010101010101010101010101010111101010101010101010101010101010101010101010101010101001010101010001010 %
0&
0'
1(
b10101010101010101010101010101010 )
b10101010101010100101010101101010101010101010101010101011010111010101101001010101010101010101011010101000101010101010101010 *
b10101011010111010101101001010101010101010101011010101000101010101010101010 +
b101010101010101010101010101011010111010101101001010101010101010101011010101000101010101010101010 ,
b10101010101010101010101010101010010101010101101010101010101010101001010101011010101010101010101010101010110101110101011010010101010101010101010110101010001010101010101010101010101010101010101010101010101000000000000000000000000000001010 -
b1010101010110101010101010101010100101010101101010101010101010101010101011010111010101101001010101010101010101011010101000101010101010101010 .
b10101010101010101010101010101010101010101010101010101010101010101010101010101010101010101010101010101010101010101010101010101010101010101010101010101010101010101010101010101010101010101010101010101010101010101010101010101010101010101010 /
b1010101010101010101010101010101010101010101010101010101010101010101010101010101010101010101010101010101010 0
0>
b1010101010101010101010101010111010101010101010101010101010101010 ?
b0 @
b10101010101010101010101010101010010101010101101010101010101010101001010101011010101010101010101010101010110101110101011010010101010101010101010110101010001010101010101010101010101010101010101010101010101000000000000000000000000000001010 A
b1010101010101010101010101010101010111101010101010101010101010101010101010101010101010101001010101010001010 B
b10101000000000000000001010101010101010 C
b0 D
b11000000000000000000000000000010101010101010101010101001010101111110101 $
b1010101010101010101010101010101001011000000000000000000000000000010101010101010101010101001010101111110101 %
b0 )
b10101010101010101010101010101110010101010101101010101010101010101001010101011010101010101010101010101010110101110101011010010101010101010101010110101010001010101010101010101010101010101010101010101010101010101010101010101010101010101010 -
b10101010101010101010101010101010010101010101101010101010101010101001010101011010101010101010101010101010110101110101011010010101010101010101010110101010001010101010101010101010101010101010101010101010101000000000000000000000000000001010 /
b1010101010101010101010101010101010111101010101010101010101010101010101010101010101010101001010101010001010 0
#5
0!
1&
#10
b11101010101010101010101010101010101010101010101010101001010101111110101 $
b1010101010101010101010101010111001011101010101010101010101010101010101010101010101010101001010101111110101 %
b1 )
b10000000000010000000000000000000000000000000100000000000101000000000000000000000010000100000000100010000000000000000001 *
b101000000000000000000000010000100000000100010000000000000000001 +
b100000000000101000000000000000000000010000100000000100010000000000000000001 ,
b100010001100001000010000100000000000100000000000000000000000000000001000000000001010000000000000000000000100001000000001000100000000000000000010000000000000000000000000000000100000000000000000000000000000001 -
b1000110000100001000010000000000010000000000000000000000000000000100000000000101000000000000000000000010000100000000100010000000000000000001 .
b10101010101010101010101010101110010101010101101010101010101010101001010101011010101010101010101010101010110101110101011010010101010101010101010110101010001010101010101010101010101010101010101010101010101010101010101010101010101010101010 /
b1010101010101010101010101010101001011000000000000000000000000000010101010101010101010101001010101111110101 0
1!
b10000000000000100001000000010100011 ?
b100 @
b10101010101010101010101010101110010101010101101010101010101010101001010101011010101010101010101010101010110101110101011010010101010101010101010110101010001010101010101010101010101010101010101010101010101010101010101010101010101010101010 A
b1010101010101010101010101010101001011000000000000000000000000000010101010101010101010101001010101111110101 B
b101010101010101010101010101010101010 C
b1 D
#15
0!
#20
b10000000000000000000000000000000010000000000000000000000000000001000001 $
b10000010000000000000000000000000000000010000000000000000000000000000001000001 %
b10 )
b100000000000100000000000000000000000000000001000000000001000000000000100000000000100001000000001000000000000001000000010 *
b1000000000000100000000000100001000000001000000000000001000000010 +
b1000000000001000000000000100000000000100001000000001000000000000001000000010 ,
b1000011001100010000100001000000000001000000000000000000000000000000010000000000010000000000001000000000001000010000000010000000000000010000000100000000000000000000000000000001000000000000000000000000000000010 -
b1100110001000010000100000000000100000000000000000000000000000001000000000001000000000000100000000000100001000000001000000000000001000000010 .
b100010001100001000010000100000000000100000000000000000000000000000001000000000001010000000000000000000000100001000000001000100000000000000000010000000000000000000000000000000100000000000000000000000000000001 /
b1010101010101010101010101010111001011101010101010101010101010101010101010101010101010101001010101111110101 0
1!
b100000000000001000010000000100110011 ?
b1000 @
b100010001100001000010000100000000000100000000000000000000000000000001000000000001010000000000000000000000100001000000001000100000000000000000010000000000000000000000000000000100000000000000000000000000000001 A
b1010101010101010101010101010111001011101010101010101010101010101010101010101010101010101001010101111110101 B
b1010100000000000000000000000000001010 C
b10 D
#25
0!
#30
b1000000000000000000000000000000010000010 $
b100000000000000000000000000000000000001000000000000000000000000000000010000010 %
b11 )
b110000000000110000000000000000000000000000001100000000001101000000000100000000000110001100000001100010000000001000000011 *
b1101000000000100000000000110001100000001100010000000001000000011 +
b1100000000001101000000000100000000000110001100000001100010000000001000000011 ,
b1100011001100011000110001100000000001100000000000000000000000000000011000000000011010000000001000000000001100011000000011000100000000010000000110000000000000000000000000000001100000000000000000000000000000011 -
b1100110001100011000110000000000110000000000000000000000000000001100000000001101000000000100000000000110001100000001100010000000001000000011 .
b1000011001100010000100001000000000001000000000000000000000000000000010000000000010000000000001000000000001000010000000010000000000000010000000100000000000000000000000000000001000000000000000000000000000000010 /
b10000010000000000000000000000000000000010000000000000000000000000000001000001 0
1!
b110000000000001100011000000110110011 ?
b1100 @
b1000011001100010000100001000000000001000000000000000000000000000000010000000000010000000000001000000000001000010000000010000000000000010000000100000000000000000000000000000001000000000000000000000000000000010 A
b10000010000000000000000000000000000000010000000000000000000000000000001000001 B
b1010110101010101010101010101010101010 C
b11 D
#35
0!
#40
b1100000000000000000000000000000011000011 $
b110000000000000000000000000000000000001100000000000000000000000000000011000011 %
b100 )
b1000000000001000000000000000000000000000000010000000000010000000000001000000000001000010000000010000000000000010000000100 *
b10000000000001000000000001000010000000010000000000000010000000100 +
b10000000000010000000000001000000000001000010000000010000000000000010000000100 ,
b10000011001100100001000010000000000010000000000000000000000000000000100000000000100000000000010000000000010000100000000100000000000000100000001000000000000000000000000000000010000000000000000000000000000000100 -
b1100110010000100001000000000001000000000000000000000000000000010000000000010000000000001000000000001000010000000010000000000000010000000100 .
b1100011001100011000110001100000000001100000000000000000000000000000011000000000011010000000001000000000001100011000000011000100000000010000000110000000000000000000000000000001100000000000000000000000000000011 /
b100000000000000000000000000000000000001000000000000000000000000000000010000010 0
1!
b1000000000000010000100000001000110011 ?
b10000 @
b1100011001100011000110001100000000001100000000000000000000000000000011000000000011010000000001000000000001100011000000011000100000000010000000110000000000000000000000000000001100000000000000000000000000000011 A
b100000000000000000000000000000000000001000000000000000000000000000000010000010 B
b100000000000000000000000000000001 C
b100 D
#45
0!
#50
b10000000000000000000000000000000100000100 $
b1000000000000000000000000000000000000010000000000000000000000000000000100000100 %
b101 )
b1010000000001010000000000000000000000000000010100000000010101000000001000000000001010010100000010100010000000010000000101 *
b10101000000001000000000001010010100000010100010000000010000000101 +
b10100000000010101000000001000000000001010010100000010100010000000010000000101 ,
b10100011001100101001010010100000000010100000000000000000000000000000101000000000101010000000010000000000010100101000000101000100000000100000001010000000000000000000000000000010100000000000000000000000000000101 -
b1100110010100101001010000000001010000000000000000000000000000010100000000010101000000001000000000001010010100000010100010000000010000000101 .
b10000011001100100001000010000000000010000000000000000000000000000000100000000000100000000000010000000000010000100000000100000000000000100000001000000000000000000000000000000010000000000000000000000000000000100 /
b110000000000000000000000000000000000001100000000000000000000000000000011000011 0
1!
b1010000000000010100101000001010110011 ?
b10100 @
b10000011001100100001000010000000000010000000000000000000000000000000100000000000100000000000010000000000010000100000000100000000000000100000001000000000000000000000000000000010000000000000000000000000000000100 A
b110000000000000000000000000000000000001100000000000000000000000000000011000011 B
b10001000000000000000000000000000000100 C
b101 D
#55
0!
#60
b10100000000000000000000000000000101000101 $
b1010000000000000000000000000000000000010100000000000000000000000000000101000101 %
b110 )
b10101010101010100101010101101010101010101010101010101011010111010101101001010101010101010101011010101000101010101010101010 *
b10101011010111010101101001010101010101010101011010101000101010101010101010 +
b101010101010101010101010101011010111010101101001010101010101010101011010101000101010101010101010 ,
b11000010101010101101010101010101010101001010101011010101010101010101010101010110101110101011010010101010101010101010110101010001010101010101010101010101010101010101010101010101000000000000000001010101010101010 -
b1010101010110101010101010101010100101010101101010101010101010101010101011010111010101101001010101010101010101011010101000101010101010101010 .
b10100011001100101001010010100000000010100000000000000000000000000000101000000000101010000000010000000000010100101000000101000100000000100000001010000000000000000000000000000010100000000000000000000000000000101 /
b1000000000000000000000000000000000000010000000000000000000000000000000100000100 0
1!
b1100010101010101010101010101010101010 ?
b11000 @
b10100011001100101001010010100000000010100000000000000000000000000000101000000000101010000000010000000000010100101000000101000100000000100000001010000000000000000000000000000010100000000000000000000000000000101 A
b1000000000000000000000000000000000000010000000000000000000000000000000100000100 B
b10001100000000000000000000000000000110 C
b110 D
#65
0!
#70
b11000000000000000010101010101010101010101010101010101001010101111110101 $
b1100001011000000000000000010101010101010101010101010101010101001010101111110101 %
b111 )
b11100010101010101101010101010101010101001010101011010101010101010101010101010110101110101011010010101010101010101010110101010001010101010101010101010101010101010101010101010101000000000000000001010101010101010 -
b11000010101010101101010101010101010101001010101011010101010101010101010101010110101110101011010010101010101010101010110101010001010101010101010101010101010101010101010101010101000000000000000001010101010101010 /
b1010000000000000000000000000000000000010100000000000000000000000000000101000101 0
1!
b1110010101010101010101010101010101010 ?
b11100 @
b11000010101010101101010101010101010101001010101011010101010101010101010101010110101110101011010010101010101010101010110101010001010101010101010101010101010101010101010101010101000000000000000001010101010101010 A
b1010000000000000000000000000000000000010100000000000000000000000000000101000101 B
b10010000000000000000000000000000001000 C
b111 D
#75
0!
#80
b1110001011000000000000000010101010101010101010101010101010101001010101111110101 %
b1000 )
b100000010101010101101010101010101010101001010101011010101010101010101010101010110101110101011010010101010101010101010110101010001010101010101010101010101010101010101010101010101000000000000000001010101010101010 -
b11100010101010101101010101010101010101001010101011010101010101010101010101010110101110101011010010101010101010101010110101010001010101010101010101010101010101010101010101010101000000000000000001010101010101010 /
b1100001011000000000000000010101010101010101010101010101010101001010101111110101 0
1!
b10000010101010101010101010101010101010 ?
b100000 @
b11100010101010101101010101010101010101001010101011010101010101010101010101010110101110101011010010101010101010101010110101010001010101010101010101010101010101010101010101010101000000000000000001010101010101010 A
b1100001011000000000000000010101010101010101010101010101010101001010101111110101 B
b10010100000000000000000000000000001010 C
b1000 D
#85
0!
#90
b10000001011000000000000000010101010101010101010101010101010101001010101111110101 %
b1001 )
b100100010101010101101010101010101010101001010101011010101010101010101010101010110101110101011010010101010101010101010110101010001010101010101010101010101010101010101010101010101000000000000000001010101010101010 -
b100000010101010101101010101010101010101001010101011010101010101010101010101010110101110101011010010101010101010101010110101010001010101010101010101010101010101010101010101010101000000000000000001010101010101010 /
b1110001011000000000000000010101010101010101010101010101010101001010101111110101 0
1!
b10010010101010101010101010101010101010 ?
b100100 @
b100000010101010101101010101010101010101001010101011010101010101010101010101010110101110101011010010101010101010101010110101010001010101010101010101010101010101010101010101010101000000000000000001010101010101010 A
b1110001011000000000000000010101010101010101010101010101010101001010101111110101 B
b1010100000000000000001010101010101010 C
b1001 D
#95
0!
#100
b10010001011000000000000000010101010101010101010101010101010101001010101111110101 %
b1010 )
b101000010101010101101010101010101010101001010101011010101010101010101010101010110101110101011010010101010101010101010110101010001010101010101010101010101010101010101010101010101000000000000000001010101010101010 -
b100100010101010101101010101010101010101001010101011010101010101010101010101010110101110101011010010101010101010101010110101010001010101010101010101010101010101010101010101010101000000000000000001010101010101010 /
b10000001011000000000000000010101010101010101010101010101010101001010101111110101 0
1!
b10100010101010101010101010101010101010 ?
b101000 @
b100100010101010101101010101010101010101001010101011010101010101010101010101010110101110101011010010101010101010101010110101010001010101010101010101010101010101010101010101010101000000000000000001010101010101010 A
b10000001011000000000000000010101010101010101010101010101010101001010101111110101 B
b1010 D
#105
0!
#110
b10100001011000000000000000010101010101010101010101010101010101001010101111110101 %
b1011 )
b101100010101010101101010101010101010101001010101011010101010101010101010101010110101110101011010010101010101010101010110101010001010101010101010101010101010101010101010101010101000000000000000001010101010101010 -
b101000010101010101101010101010101010101001010101011010101010101010101010101010110101110101011010010101010101010101010110101010001010101010101010101010101010101010101010101010101000000000000000001010101010101010 /
b10010001011000000000000000010101010101010101010101010101010101001010101111110101 0
1!
b10110010101010101010101010101010101010 ?
b101100 @
b101000010101010101101010101010101010101001010101011010101010101010101010101010110101110101011010010101010101010101010110101010001010101010101010101010101010101010101010101010101000000000000000001010101010101010 A
b10010001011000000000000000010101010101010101010101010101010101001010101111110101 B
b1011 D
#115
0!
#120
b10110001011000000000000000010101010101010101010101010101010101001010101111110101 %
b1100 )
b110000010101010101101010101010101010101001010101011010101010101010101010101010110101110101011010010101010101010101010110101010001010101010101010101010101010101010101010101010101000000000000000001010101010101010 -
b101100010101010101101010101010101010101001010101011010101010101010101010101010110101110101011010010101010101010101010110101010001010101010101010101010101010101010101010101010101000000000000000001010101010101010 /
b10100001011000000000000000010101010101010101010101010101010101001010101111110101 0
1!
b11000010101010101010101010101010101010 ?
b110000 @
b101100010101010101101010101010101010101001010101011010101010101010101010101010110101110101011010010101010101010101010110101010001010101010101010101010101010101010101010101010101000000000000000001010101010101010 A
b10100001011000000000000000010101010101010101010101010101010101001010101111110101 B
b1100 D
#125
0!
#130
b11000001011000000000000000010101010101010101010101010101010101001010101111110101 %
b1101 )
b110100010101010101101010101010101010101001010101011010101010101010101010101010110101110101011010010101010101010101010110101010001010101010101010101010101010101010101010101010101000000000000000001010101010101010 -
b110000010101010101101010101010101010101001010101011010101010101010101010101010110101110101011010010101010101010101010110101010001010101010101010101010101010101010101010101010101000000000000000001010101010101010 /
b10110001011000000000000000010101010101010101010101010101010101001010101111110101 0
1!
b11010010101010101010101010101010101010 ?
b110100 @
b110000010101010101101010101010101010101001010101011010101010101010101010101010110101110101011010010101010101010101010110101010001010101010101010101010101010101010101010101010101000000000000000001010101010101010 A
b10110001011000000000000000010101010101010101010101010101010101001010101111110101 B
b1101 D
#135
0!
#140
b11010001011000000000000000010101010101010101010101010101010101001010101111110101 %
b1110 )
b111000010101010101101010101010101010101001010101011010101010101010101010101010110101110101011010010101010101010101010110101010001010101010101010101010101010101010101010101010101000000000000000001010101010101010 -
b110100010101010101101010101010101010101001010101011010101010101010101010101010110101110101011010010101010101010101010110101010001010101010101010101010101010101010101010101010101000000000000000001010101010101010 /
b11000001011000000000000000010101010101010101010101010101010101001010101111110101 0
1!
b11100010101010101010101010101010101010 ?
b111000 @
b110100010101010101101010101010101010101001010101011010101010101010101010101010110101110101011010010101010101010101010110101010001010101010101010101010101010101010101010101010101000000000000000001010101010101010 A
b11000001011000000000000000010101010101010101010101010101010101001010101111110101 B
b1110 D
#145
0!
#150
b11100001011000000000000000010101010101010101010101010101010101001010101111110101 %
b1111 )
b111100010101010101101010101010101010101001010101011010101010101010101010101010110101110101011010010101010101010101010110101010001010101010101010101010101010101010101010101010101000000000000000001010101010101010 -
b111000010101010101101010101010101010101001010101011010101010101010101010101010110101110101011010010101010101010101010110101010001010101010101010101010101010101010101010101010101000000000000000001010101010101010 /
b11010001011000000000000000010101010101010101010101010101010101001010101111110101 0
1!
b11110010101010101010101010101010101010 ?
b111100 @
b111000010101010101101010101010101010101001010101011010101010101010101010101010110101110101011010010101010101010101010110101010001010101010101010101010101010101010101010101010101000000000000000001010101010101010 A
b11010001011000000000000000010101010101010101010101010101010101001010101111110101 B
b1111 D
#155
0!
#160
b11110001011000000000000000010101010101010101010101010101010101001010101111110101 %
b10000 )
b1000000010101010101101010101010101010101001010101011010101010101010101010101010110101110101011010010101010101010101010110101010001010101010101010101010101010101010101010101010101000000000000000001010101010101010 -
b111100010101010101101010101010101010101001010101011010101010101010101010101010110101110101011010010101010101010101010110101010001010101010101010101010101010101010101010101010101000000000000000001010101010101010 /
b11100001011000000000000000010101010101010101010101010101010101001010101111110101 0
1!
b100000010101010101010101010101010101010 ?
b1000000 @
b111100010101010101101010101010101010101001010101011010101010101010101010101010110101110101011010010101010101010101010110101010001010101010101010101010101010101010101010101010101000000000000000001010101010101010 A
b11100001011000000000000000010101010101010101010101010101010101001010101111110101 B
b10000 D
#165
0!
#170
b100000001011000000000000000010101010101010101010101010101010101001010101111110101 %
b10001 )
b1000100010101010101101010101010101010101001010101011010101010101010101010101010110101110101011010010101010101010101010110101010001010101010101010101010101010101010101010101010101000000000000000001010101010101010 -
b1000000010101010101101010101010101010101001010101011010101010101010101010101010110101110101011010010101010101010101010110101010001010101010101010101010101010101010101010101010101000000000000000001010101010101010 /
b11110001011000000000000000010101010101010101010101010101010101001010101111110101 0
1!
b100010010101010101010101010101010101010 ?
b1000100 @
b1000000010101010101101010101010101010101001010101011010101010101010101010101010110101110101011010010101010101010101010110101010001010101010101010101010101010101010101010101010101000000000000000001010101010101010 A
b11110001011000000000000000010101010101010101010101010101010101001010101111110101 B
b10001 D
#175
0!
#180
b100010001011000000000000000010101010101010101010101010101010101001010101111110101 %
b10010 )
b1001000010101010101101010101010101010101001010101011010101010101010101010101010110101110101011010010101010101010101010110101010001010101010101010101010101010101010101010101010101000000000000000001010101010101010 -
b1000100010101010101101010101010101010101001010101011010101010101010101010101010110101110101011010010101010101010101010110101010001010101010101010101010101010101010101010101010101000000000000000001010101010101010 /
b100000001011000000000000000010101010101010101010101010101010101001010101111110101 0
1!
b100100010101010101010101010101010101010 ?
b1001000 @
b1000100010101010101101010101010101010101001010101011010101010101010101010101010110101110101011010010101010101010101010110101010001010101010101010101010101010101010101010101010101000000000000000001010101010101010 A
b100000001011000000000000000010101010101010101010101010101010101001010101111110101 B
b10010 D
#185
0!
#190
b100100001011000000000000000010101010101010101010101010101010101001010101111110101 %
b10011 )
b1001100010101010101101010101010101010101001010101011010101010101010101010101010110101110101011010010101010101010101010110101010001010101010101010101010101010101010101010101010101000000000000000001010101010101010 -
b1001000010101010101101010101010101010101001010101011010101010101010101010101010110101110101011010010101010101010101010110101010001010101010101010101010101010101010101010101010101000000000000000001010101010101010 /
b100010001011000000000000000010101010101010101010101010101010101001010101111110101 0
1!
b100110010101010101010101010101010101010 ?
b1001100 @
b1001000010101010101101010101010101010101001010101011010101010101010101010101010110101110101011010010101010101010101010110101010001010101010101010101010101010101010101010101010101000000000000000001010101010101010 A
b100010001011000000000000000010101010101010101010101010101010101001010101111110101 B
b10011 D
#195
0!
#200
b100110001011000000000000000010101010101010101010101010101010101001010101111110101 %
b10100 )
b1010000010101010101101010101010101010101001010101011010101010101010101010101010110101110101011010010101010101010101010110101010001010101010101010101010101010101010101010101010101000000000000000001010101010101010 -
b1001100010101010101101010101010101010101001010101011010101010101010101010101010110101110101011010010101010101010101010110101010001010101010101010101010101010101010101010101010101000000000000000001010101010101010 /
b100100001011000000000000000010101010101010101010101010101010101001010101111110101 0
1!
b101000010101010101010101010101010101010 ?
b1010000 @
b1001100010101010101101010101010101010101001010101011010101010101010101010101010110101110101011010010101010101010101010110101010001010101010101010101010101010101010101010101010101000000000000000001010101010101010 A
b100100001011000000000000000010101010101010101010101010101010101001010101111110101 B
b10100 D
#205
0!
#210
b101000001011000000000000000010101010101010101010101010101010101001010101111110101 %
b10101 )
b1010100010101010101101010101010101010101001010101011010101010101010101010101010110101110101011010010101010101010101010110101010001010101010101010101010101010101010101010101010101000000000000000001010101010101010 -
b1010000010101010101101010101010101010101001010101011010101010101010101010101010110101110101011010010101010101010101010110101010001010101010101010101010101010101010101010101010101000000000000000001010101010101010 /
b100110001011000000000000000010101010101010101010101010101010101001010101111110101 0
1!
b101010010101010101010101010101010101010 ?
b1010100 @
b1010000010101010101101010101010101010101001010101011010101010101010101010101010110101110101011010010101010101010101010110101010001010101010101010101010101010101010101010101010101000000000000000001010101010101010 A
b100110001011000000000000000010101010101010101010101010101010101001010101111110101 B
b10101 D
#215
0!
#220
b101010001011000000000000000010101010101010101010101010101010101001010101111110101 %
b10110 )
b1011000010101010101101010101010101010101001010101011010101010101010101010101010110101110101011010010101010101010101010110101010001010101010101010101010101010101010101010101010101000000000000000001010101010101010 -
b1010100010101010101101010101010101010101001010101011010101010101010101010101010110101110101011010010101010101010101010110101010001010101010101010101010101010101010101010101010101000000000000000001010101010101010 /
b101000001011000000000000000010101010101010101010101010101010101001010101111110101 0
1!
b101100010101010101010101010101010101010 ?
b1011000 @
b1010100010101010101101010101010101010101001010101011010101010101010101010101010110101110101011010010101010101010101010110101010001010101010101010101010101010101010101010101010101000000000000000001010101010101010 A
b101000001011000000000000000010101010101010101010101010101010101001010101111110101 B
b10110 D
#225
0!
#230
b101100001011000000000000000010101010101010101010101010101010101001010101111110101 %
b10111 )
b1011100010101010101101010101010101010101001010101011010101010101010101010101010110101110101011010010101010101010101010110101010001010101010101010101010101010101010101010101010101000000000000000001010101010101010 -
b1011000010101010101101010101010101010101001010101011010101010101010101010101010110101110101011010010101010101010101010110101010001010101010101010101010101010101010101010101010101000000000000000001010101010101010 /
b101010001011000000000000000010101010101010101010101010101010101001010101111110101 0
1!
b101110010101010101010101010101010101010 ?
b1011100 @
b1011000010101010101101010101010101010101001010101011010101010101010101010101010110101110101011010010101010101010101010110101010001010101010101010101010101010101010101010101010101000000000000000001010101010101010 A
b101010001011000000000000000010101010101010101010101010101010101001010101111110101 B
b10111 D
#235
0!
#240
b101110001011000000000000000010101010101010101010101010101010101001010101111110101 %
b11000 )
b1100000010101010101101010101010101010101001010101011010101010101010101010101010110101110101011010010101010101010101010110101010001010101010101010101010101010101010101010101010101000000000000000001010101010101010 -
b1011100010101010101101010101010101010101001010101011010101010101010101010101010110101110101011010010101010101010101010110101010001010101010101010101010101010101010101010101010101000000000000000001010101010101010 /
b101100001011000000000000000010101010101010101010101010101010101001010101111110101 0
1!
b110000010101010101010101010101010101010 ?
b1100000 @
b1011100010101010101101010101010101010101001010101011010101010101010101010101010110101110101011010010101010101010101010110101010001010101010101010101010101010101010101010101010101000000000000000001010101010101010 A
b101100001011000000000000000010101010101010101010101010101010101001010101111110101 B
b11000 D
#245
0!
#250
b110000001011000000000000000010101010101010101010101010101010101001010101111110101 %
b11001 )
b1100100010101010101101010101010101010101001010101011010101010101010101010101010110101110101011010010101010101010101010110101010001010101010101010101010101010101010101010101010101000000000000000001010101010101010 -
b1100000010101010101101010101010101010101001010101011010101010101010101010101010110101110101011010010101010101010101010110101010001010101010101010101010101010101010101010101010101000000000000000001010101010101010 /
b101110001011000000000000000010101010101010101010101010101010101001010101111110101 0
1!
b110010010101010101010101010101010101010 ?
b1100100 @
b1100000010101010101101010101010101010101001010101011010101010101010101010101010110101110101011010010101010101010101010110101010001010101010101010101010101010101010101010101010101000000000000000001010101010101010 A
b101110001011000000000000000010101010101010101010101010101010101001010101111110101 B
b11001 D
#255
0!
#260
b110010001011000000000000000010101010101010101010101010101010101001010101111110101 %
b11010 )
b1101000010101010101101010101010101010101001010101011010101010101010101010101010110101110101011010010101010101010101010110101010001010101010101010101010101010101010101010101010101000000000000000001010101010101010 -
b1100100010101010101101010101010101010101001010101011010101010101010101010101010110101110101011010010101010101010101010110101010001010101010101010101010101010101010101010101010101000000000000000001010101010101010 /
b110000001011000000000000000010101010101010101010101010101010101001010101111110101 0
1!
b110100010101010101010101010101010101010 ?
b1101000 @
b1100100010101010101101010101010101010101001010101011010101010101010101010101010110101110101011010010101010101010101010110101010001010101010101010101010101010101010101010101010101000000000000000001010101010101010 A
b110000001011000000000000000010101010101010101010101010101010101001010101111110101 B
b11010 D
#265
0!
#270
b110100001011000000000000000010101010101010101010101010101010101001010101111110101 %
b11011 )
b1101100010101010101101010101010101010101001010101011010101010101010101010101010110101110101011010010101010101010101010110101010001010101010101010101010101010101010101010101010101000000000000000001010101010101010 -
b1101000010101010101101010101010101010101001010101011010101010101010101010101010110101110101011010010101010101010101010110101010001010101010101010101010101010101010101010101010101000000000000000001010101010101010 /
b110010001011000000000000000010101010101010101010101010101010101001010101111110101 0
1!
b110110010101010101010101010101010101010 ?
b1101100 @
b1101000010101010101101010101010101010101001010101011010101010101010101010101010110101110101011010010101010101010101010110101010001010101010101010101010101010101010101010101010101000000000000000001010101010101010 A
b110010001011000000000000000010101010101010101010101010101010101001010101111110101 B
b11011 D
#275
0!
#280
b110110001011000000000000000010101010101010101010101010101010101001010101111110101 %
b11100 )
b1110000010101010101101010101010101010101001010101011010101010101010101010101010110101110101011010010101010101010101010110101010001010101010101010101010101010101010101010101010101000000000000000001010101010101010 -
b1101100010101010101101010101010101010101001010101011010101010101010101010101010110101110101011010010101010101010101010110101010001010101010101010101010101010101010101010101010101000000000000000001010101010101010 /
b110100001011000000000000000010101010101010101010101010101010101001010101111110101 0
1!
b111000010101010101010101010101010101010 ?
b1110000 @
b1101100010101010101101010101010101010101001010101011010101010101010101010101010110101110101011010010101010101010101010110101010001010101010101010101010101010101010101010101010101000000000000000001010101010101010 A
b110100001011000000000000000010101010101010101010101010101010101001010101111110101 B
b11100 D
#285
0!
#290
b111000001011000000000000000010101010101010101010101010101010101001010101111110101 %
b11101 )
b1110100010101010101101010101010101010101001010101011010101010101010101010101010110101110101011010010101010101010101010110101010001010101010101010101010101010101010101010101010101000000000000000001010101010101010 -
b1110000010101010101101010101010101010101001010101011010101010101010101010101010110101110101011010010101010101010101010110101010001010101010101010101010101010101010101010101010101000000000000000001010101010101010 /
b110110001011000000000000000010101010101010101010101010101010101001010101111110101 0
1!
b111010010101010101010101010101010101010 ?
b1110100 @
b1110000010101010101101010101010101010101001010101011010101010101010101010101010110101110101011010010101010101010101010110101010001010101010101010101010101010101010101010101010101000000000000000001010101010101010 A
b110110001011000000000000000010101010101010101010101010101010101001010101111110101 B
b11101 D
#295
0!
#300
b111010001011000000000000000010101010101010101010101010101010101001010101111110101 %
b11110 )
b1111000010101010101101010101010101010101001010101011010101010101010101010101010110101110101011010010101010101010101010110101010001010101010101010101010101010101010101010101010101000000000000000001010101010101010 -
b1110100010101010101101010101010101010101001010101011010101010101010101010101010110101110101011010010101010101010101010110101010001010101010101010101010101010101010101010101010101000000000000000001010101010101010 /
b111000001011000000000000000010101010101010101010101010101010101001010101111110101 0
1!
b111100010101010101010101010101010101010 ?
b1111000 @
b1110100010101010101101010101010101010101001010101011010101010101010101010101010110101110101011010010101010101010101010110101010001010101010101010101010101010101010101010101010101000000000000000001010101010101010 A
b111000001011000000000000000010101010101010101010101010101010101001010101111110101 B
b11110 D
#305
0!
#310
1"
b111100001011000000000000000010101010101010101010101010101010101001010101111110101 %
1'
b11111 )
b1111100010101010101101010101010101010101001010101011010101010101010101010101010110101110101011010010101010101010101010110101010001010101010101010101010101010101010101010101010101000000000000000001010101010101010 -
b1111000010101010101101010101010101010101001010101011010101010101010101010101010110101110101011010010101010101010101010110101010001010101010101010101010101010101010101010101010101000000000000000001010101010101010 /
b111010001011000000000000000010101010101010101010101010101010101001010101111110101 0
1!
b111110010101010101010101010101010101010 ?
b1111100 @
b1111000010101010101101010101010101010101001010101011010101010101010101010101010110101110101011010010101010101010101010110101010001010101010101010101010101010101010101010101010101000000000000000001010101010101010 A
b111010001011000000000000000010101010101010101010101010101010101001010101111110101 B
b11111 D
