dump.vcd
$date
	Sat May 23 16:26:35 2020
$end
$version
	Bluespec VCD dumper 2.1
$end
$timescale
	1 us
$end
$scope module main $end
$scope module top $end
$var reg 1 ! CLK $end
$var reg 1 ! CLK $end
$var reg 1 " CAN_FIRE_RL_done $end
$var reg 1 # CAN_FIRE_RL_pipe $end
$var reg 71 $ IF_s2_reg_id_ex_9_BITS_203_TO_197_2_EQ_0b11001_ETC___d182 $end
$var reg 106 % IF_s2_reg_id_ex_9_BITS_203_TO_197_2_EQ_0b11001_ETC___d183 $end
$var reg 1 & RST_N $end
$var reg 1 ' WILL_FIRE_RL_done $end
$var reg 1 ( WILL_FIRE_RL_pipe $end
$var reg 32 ) b__h4939 $end
$var reg 123 * s1_reg_if_id_8_BITS_24_TO_20_8_CONCAT_s1_reg_i_ETC___d75 $end
$var reg 74 + s1_reg_if_id_8_BITS_31_TO_25_5_CONCAT_s1_reg_i_ETC___d73 $end
$var reg 96 , s1_reg_if_id_8_BITS_31_TO_25_5_CONCAT_s1_reg_i_ETC___d74 $end
$var reg 236 - s1_reg_if_id_8_BITS_63_TO_32_1_CONCAT_s1_reg_i_ETC___d78 $end
$var reg 140 . s1_reg_if_id_8_BITS_6_TO_0_0_CONCAT_s1_reg_if__ETC___d76 $end
$var reg 236 / s2_reg_id_ex___d79 $end
$var reg 106 0 s3_reg_ex_mem___d184 $end
$var reg 1 ? regfile_flag $end
$var reg 64 @ s1_reg_if_id $end
$var reg 32 A s1_reg_pc $end
$var reg 33 B s2_reg_branch $end
$var reg 236 C s2_reg_id_ex $end
$var reg 106 D s3_reg_ex_mem $end
$var reg 38 E s4_reg_mem_wb $end
$var reg 32 F step $end
$upscope $end
$upscope $end
$enddefinitions $end
1!
0"
1#
b11101010101010101010101010101010101010101010101010101001010101010001010 $
b1010101010101010101010101010101010111101010101010101010101010101010101010101010101010101001010101010001010 %
0&
0'
1(
b10101010101010101010101010101010 )
b10101010101010100101010101101010101010101010101010101011010111010101101001010101010101010101011010101000101010101010101010 *
b10101011010111010101101001010101010101010101011010101000101010101010101010 +
b101010101010101010101010101011010111010101101001010101010101010101011010101000101010101010101010 ,
b10101010101010101010101010101010010101010101101010101010101010101001010101011010101010101010101010101010110101110101011010010101010101010101010110101010001010101010101010101010101010101010101010101010101000000000000000000000000000001010 -
b1010101010110101010101010101010100101010101101010101010101010101010101011010111010101101001010101010101010101011010101000101010101010101010 .
b10101010101010101010101010101010101010101010101010101010101010101010101010101010101010101010101010101010101010101010101010101010101010101010101010101010101010101010101010101010101010101010101010101010101010101010101010101010101010101010 /
b1010101010101010101010101010101010101010101010101010101010101010101010101010101010101010101010101010101010 0
0?
b1010101010101010101010101010111010101010101010101010101010101010 @
b0 A
b10101010101010101010101010101010 B
b10101010101010101010101010101010010101010101101010101010101010101001010101011010101010101010101010101010110101110101011010010101010101010101010110101010001010101010101010101010101010101010101010101010101000000000000000000000000000001010 C
b1010101010101010101010101010101010111101010101010101010101010101010101010101010101010101001010101010001010 D
b10101000000000000000001010101010101010 E
b0 F
b11000000000000000000000000000010101010101010101010101001010101111110101 $
b1010101010101010101010101010101001011000000000000000000000000000010101010101010101010101001010101111110101 %
b0 )
b10101010101010101010101010101110010101010101101010101010101010101001010101011010101010101010101010101010110101110101011010010101010101010101010110101010001010101010101010101010101010101010101010101010101010101010101010101010101010101010 -
b10101010101010101010101010101010010101010101101010101010101010101001010101011010101010101010101010101010110101110101011010010101010101010101010110101010001010101010101010101010101010101010101010101010101000000000000000000000000000001010 /
b1010101010101010101010101010101010111101010101010101010101010101010101010101010101010101001010101010001010 0
#5
0!
1&
#10
b11101010101010101010101010101010101010101010101010101001010101111110101 $
b1010101010101010101010101010111001011101010101010101010101010101010101010101010101010101001010101111110101 %
b1 )
b10000000000010000000000000000000000000000000100000000000101000000000000000000000010000100000000100010000000000000000001 *
b101000000000000000000000010000100000000100010000000000000000001 +
b100000000000101000000000000000000000010000100000000100010000000000000000001 ,
b100010001100001000010000100000000000100000000000000000000000000000001000000000001010000000000000000000000100001000000001000100000000000000000010000000000000000000000000000000100000000000000000000000000000001 -
b1000110000100001000010000000000010000000000000000000000000000000100000000000101000000000000000000000010000100000000100010000000000000000001 .
b10101010101010101010101010101110010101010101101010101010101010101001010101011010101010101010101010101010110101110101011010010101010101010101010110101010001010101010101010101010101010101010101010101010101010101010101010101010101010101010 /
b1010101010101010101010101010101001011000000000000000000000000000010101010101010101010101001010101111110101 0
1!
b10000000000000100001000000010100011 @
b100 A
b10101010101010101010101010101110010101010101101010101010101010101001010101011010101010101010101010101010110101110101011010010101010101010101010110101010001010101010101010101010101010101010101010101010101010101010101010101010101010101010 C
b1010101010101010101010101010101001011000000000000000000000000000010101010101010101010101001010101111110101 D
b101010101010101010101010101010101010 E
b1 F
#15
0!
#20
b10000000000000000000000000000000010000000000000000000000000000001000001 $
b10000010000000000000000000000000000000010000000000000000000000000000001000001 %
b10 )
b100000000000100000000000000000000000000000001000000000001000000000000100000000000100001000000001000000000000001000000010 *
b1000000000000100000000000100001000000001000000000000001000000010 +
b1000000000001000000000000100000000000100001000000001000000000000001000000010 ,
b1000011001100010000100001000000000001000000000000000000000000000000010000000000010000000000001000000000001000010000000010000000000000010000000100000000000000000000000000000001000000000000000000000000000000010 -
b1100110001000010000100000000000100000000000000000000000000000001000000000001000000000000100000000000100001000000001000000000000001000000010 .
b100010001100001000010000100000000000100000000000000000000000000000001000000000001010000000000000000000000100001000000001000100000000000000000010000000000000000000000000000000100000000000000000000000000000001 /
b1010101010101010101010101010111001011101010101010101010101010101010101010101010101010101001010101111110101 0
1!
b100000000000001000010000000100110011 @
b1000 A
b100010001100001000010000100000000000100000000000000000000000000000001000000000001010000000000000000000000100001000000001000100000000000000000010000000000000000000000000000000100000000000000000000000000000001 C
b1010101010101010101010101010111001011101010101010101010101010101010101010101010101010101001010101111110101 D
b1010100000000000000000000000000001010 E
b10 F
#25
0!
#30
b1000000000000000000000000000000010000010 $
b100000000000000000000000000000000000001000000000000000000000000000000010000010 %
b11 )
b110000000000110000000000000000000000000000001100000000001101000000000100000000000110001100000001100010000000001000000011 *
b1101000000000100000000000110001100000001100010000000001000000011 +
b1100000000001101000000000100000000000110001100000001100010000000001000000011 ,
b1100011001100011000110001100000000001100000000000000000000000000000011000000000011010000000001000000000001100011000000011000100000000010000000110000000000000000000000000000001100000000000000000000000000000011 -
b1100110001100011000110000000000110000000000000000000000000000001100000000001101000000000100000000000110001100000001100010000000001000000011 .
b1000011001100010000100001000000000001000000000000000000000000000000010000000000010000000000001000000000001000010000000010000000000000010000000100000000000000000000000000000001000000000000000000000000000000010 /
b10000010000000000000000000000000000000010000000000000000000000000000001000001 0
1!
b110000000000001100011000000110110011 @
b1100 A
b1000011001100010000100001000000000001000000000000000000000000000000010000000000010000000000001000000000001000010000000010000000000000010000000100000000000000000000000000000001000000000000000000000000000000010 C
b10000010000000000000000000000000000000010000000000000000000000000000001000001 D
b1010110101010101010101010101010101010 E
b11 F
#35
0!
#40
b1100000000000000000000000000000011000011 $
b110000000000000000000000000000000000001100000000000000000000000000000011000011 %
b100 )
b1000000000001000000000000000000000000000000010000000000010000000000001000000000001000010000000010000000000000010000000100 *
b10000000000001000000000001000010000000010000000000000010000000100 +
b10000000000010000000000001000000000001000010000000010000000000000010000000100 ,
b10000011001100100001000010000000000010000000000000000000000000000000100000000000100000000000010000000000010000100000000100000000000000100000001000000000000000000000000000000010000000000000000000000000000000100 -
b1100110010000100001000000000001000000000000000000000000000000010000000000010000000000001000000000001000010000000010000000000000010000000100 .
b1100011001100011000110001100000000001100000000000000000000000000000011000000000011010000000001000000000001100011000000011000100000000010000000110000000000000000000000000000001100000000000000000000000000000011 /
b100000000000000000000000000000000000001000000000000000000000000000000010000010 0
1!
b1000000000000010000100000001000110011 @
b10000 A
b1100011001100011000110001100000000001100000000000000000000000000000011000000000011010000000001000000000001100011000000011000100000000010000000110000000000000000000000000000001100000000000000000000000000000011 C
b100000000000000000000000000000000000001000000000000000000000000000000010000010 D
b100000000000000000000000000000001 E
b100 F
#45
0!
#50
b10000000000000000000000000000000100000100 $
b1000000000000000000000000000000000000010000000000000000000000000000000100000100 %
b101 )
b1010000000001010000000000000000000000000000010100000000010101000000001000000000001010010100000010100010000000010000000101 *
b10101000000001000000000001010010100000010100010000000010000000101 +
b10100000000010101000000001000000000001010010100000010100010000000010000000101 ,
b10100011001100101001010010100000000010100000000000000000000000000000101000000000101010000000010000000000010100101000000101000100000000100000001010000000000000000000000000000010100000000000000000000000000000101 -
b1100110010100101001010000000001010000000000000000000000000000010100000000010101000000001000000000001010010100000010100010000000010000000101 .
b10000011001100100001000010000000000010000000000000000000000000000000100000000000100000000000010000000000010000100000000100000000000000100000001000000000000000000000000000000010000000000000000000000000000000100 /
b110000000000000000000000000000000000001100000000000000000000000000000011000011 0
1!
b1010000000000010100101000001010110011 @
b10100 A
b10000011001100100001000010000000000010000000000000000000000000000000100000000000100000000000010000000000010000100000000100000000000000100000001000000000000000000000000000000010000000000000000000000000000000100 C
b110000000000000000000000000000000000001100000000000000000000000000000011000011 D
b10001000000000000000000000000000000100 E
b101 F
#55
0!
#60
b10100000000000000000000000000000101000101 $
b1010000000000000000000000000000000000010100000000000000000000000000000101000101 %
b110 )
b10101010101010100101010101101010101010101010101010101011010111010101101001010101010101010101011010101000101010101010101010 *
b10101011010111010101101001010101010101010101011010101000101010101010101010 +
b101010101010101010101010101011010111010101101001010101010101010101011010101000101010101010101010 ,
b11000010101010101101010101010101010101001010101011010101010101010101010101010110101110101011010010101010101010101010110101010001010101010101010101010101010101010101010101010101000000000000000001010101010101010 -
b1010101010110101010101010101010100101010101101010101010101010101010101011010111010101101001010101010101010101011010101000101010101010101010 .
b10100011001100101001010010100000000010100000000000000000000000000000101000000000101010000000010000000000010100101000000101000100000000100000001010000000000000000000000000000010100000000000000000000000000000101 /
b1000000000000000000000000000000000000010000000000000000000000000000000100000100 0
1!
b1100010101010101010101010101010101010 @
b11000 A
b10100011001100101001010010100000000010100000000000000000000000000000101000000000101010000000010000000000010100101000000101000100000000100000001010000000000000000000000000000010100000000000000000000000000000101 C
b1000000000000000000000000000000000000010000000000000000000000000000000100000100 D
b10001100000000000000000000000000000110 E
b110 F
#65
0!
#70
b11000000000000000010101010101010101010101010101010101001010101111110101 $
b1100001011000000000000000010101010101010101010101010101010101001010101111110101 %
b111 )
b11100010101010101101010101010101010101001010101011010101010101010101010101010110101110101011010010101010101010101010110101010001010101010101010101010101010101010101010101010101000000000000000001010101010101010 -
b11000010101010101101010101010101010101001010101011010101010101010101010101010110101110101011010010101010101010101010110101010001010101010101010101010101010101010101010101010101000000000000000001010101010101010 /
b1010000000000000000000000000000000000010100000000000000000000000000000101000101 0
1!
b1110010101010101010101010101010101010 @
b11100 A
b11000010101010101101010101010101010101001010101011010101010101010101010101010110101110101011010010101010101010101010110101010001010101010101010101010101010101010101010101010101000000000000000001010101010101010 C
b1010000000000000000000000000000000000010100000000000000000000000000000101000101 D
b10010000000000000000000000000000001000 E
b111 F
#75
0!
#80
b1110001011000000000000000010101010101010101010101010101010101001010101111110101 %
b1000 )
b100000010101010101101010101010101010101001010101011010101010101010101010101010110101110101011010010101010101010101010110101010001010101010101010101010101010101010101010101010101000000000000000001010101010101010 -
b11100010101010101101010101010101010101001010101011010101010101010101010101010110101110101011010010101010101010101010110101010001010101010101010101010101010101010101010101010101000000000000000001010101010101010 /
b1100001011000000000000000010101010101010101010101010101010101001010101111110101 0
1!
b10000010101010101010101010101010101010 @
b100000 A
b11100010101010101101010101010101010101001010101011010101010101010101010101010110101110101011010010101010101010101010110101010001010101010101010101010101010101010101010101010101000000000000000001010101010101010 C
b1100001011000000000000000010101010101010101010101010101010101001010101111110101 D
b10010100000000000000000000000000001010 E
b1000 F
#85
0!
#90
b10000001011000000000000000010101010101010101010101010101010101001010101111110101 %
b1001 )
b100100010101010101101010101010101010101001010101011010101010101010101010101010110101110101011010010101010101010101010110101010001010101010101010101010101010101010101010101010101000000000000000001010101010101010 -
b100000010101010101101010101010101010101001010101011010101010101010101010101010110101110101011010010101010101010101010110101010001010101010101010101010101010101010101010101010101000000000000000001010101010101010 /
b1110001011000000000000000010101010101010101010101010101010101001010101111110101 0
1!
b10010010101010101010101010101010101010 @
b100100 A
b100000010101010101101010101010101010101001010101011010101010101010101010101010110101110101011010010101010101010101010110101010001010101010101010101010101010101010101010101010101000000000000000001010101010101010 C
b1110001011000000000000000010101010101010101010101010101010101001010101111110101 D
b1010100000000000000001010101010101010 E
b1001 F
#95
0!
#100
b10010001011000000000000000010101010101010101010101010101010101001010101111110101 %
b1010 )
b101000010101010101101010101010101010101001010101011010101010101010101010101010110101110101011010010101010101010101010110101010001010101010101010101010101010101010101010101010101000000000000000001010101010101010 -
b100100010101010101101010101010101010101001010101011010101010101010101010101010110101110101011010010101010101010101010110101010001010101010101010101010101010101010101010101010101000000000000000001010101010101010 /
b10000001011000000000000000010101010101010101010101010101010101001010101111110101 0
1!
b10100010101010101010101010101010101010 @
b101000 A
b100100010101010101101010101010101010101001010101011010101010101010101010101010110101110101011010010101010101010101010110101010001010101010101010101010101010101010101010101010101000000000000000001010101010101010 C
b10000001011000000000000000010101010101010101010101010101010101001010101111110101 D
b1010 F
#105
0!
#110
b10100001011000000000000000010101010101010101010101010101010101001010101111110101 %
b1011 )
b101100010101010101101010101010101010101001010101011010101010101010101010101010110101110101011010010101010101010101010110101010001010101010101010101010101010101010101010101010101000000000000000001010101010101010 -
b101000010101010101101010101010101010101001010101011010101010101010101010101010110101110101011010010101010101010101010110101010001010101010101010101010101010101010101010101010101000000000000000001010101010101010 /
b10010001011000000000000000010101010101010101010101010101010101001010101111110101 0
1!
b10110010101010101010101010101010101010 @
b101100 A
b101000010101010101101010101010101010101001010101011010101010101010101010101010110101110101011010010101010101010101010110101010001010101010101010101010101010101010101010101010101000000000000000001010101010101010 C
b10010001011000000000000000010101010101010101010101010101010101001010101111110101 D
b1011 F
#115
0!
#120
b10110001011000000000000000010101010101010101010101010101010101001010101111110101 %
b1100 )
b110000010101010101101010101010101010101001010101011010101010101010101010101010110101110101011010010101010101010101010110101010001010101010101010101010101010101010101010101010101000000000000000001010101010101010 -
b101100010101010101101010101010101010101001010101011010101010101010101010101010110101110101011010010101010101010101010110101010001010101010101010101010101010101010101010101010101000000000000000001010101010101010 /
b10100001011000000000000000010101010101010101010101010101010101001010101111110101 0
1!
b11000010101010101010101010101010101010 @
b110000 A
b101100010101010101101010101010101010101001010101011010101010101010101010101010110101110101011010010101010101010101010110101010001010101010101010101010101010101010101010101010101000000000000000001010101010101010 C
b10100001011000000000000000010101010101010101010101010101010101001010101111110101 D
b1100 F
#125
0!
#130
b11000001011000000000000000010101010101010101010101010101010101001010101111110101 %
b1101 )
b110100010101010101101010101010101010101001010101011010101010101010101010101010110101110101011010010101010101010101010110101010001010101010101010101010101010101010101010101010101000000000000000001010101010101010 -
b110000010101010101101010101010101010101001010101011010101010101010101010101010110101110101011010010101010101010101010110101010001010101010101010101010101010101010101010101010101000000000000000001010101010101010 /
b10110001011000000000000000010101010101010101010101010101010101001010101111110101 0
1!
b11010010101010101010101010101010101010 @
b110100 A
b110000010101010101101010101010101010101001010101011010101010101010101010101010110101110101011010010101010101010101010110101010001010101010101010101010101010101010101010101010101000000000000000001010101010101010 C
b10110001011000000000000000010101010101010101010101010101010101001010101111110101 D
b1101 F
#135
0!
#140
b11010001011000000000000000010101010101010101010101010101010101001010101111110101 %
b1110 )
b111000010101010101101010101010101010101001010101011010101010101010101010101010110101110101011010010101010101010101010110101010001010101010101010101010101010101010101010101010101000000000000000001010101010101010 -
b110100010101010101101010101010101010101001010101011010101010101010101010101010110101110101011010010101010101010101010110101010001010101010101010101010101010101010101010101010101000000000000000001010101010101010 /
b11000001011000000000000000010101010101010101010101010101010101001010101111110101 0
1!
b11100010101010101010101010101010101010 @
b111000 A
b110100010101010101101010101010101010101001010101011010101010101010101010101010110101110101011010010101010101010101010110101010001010101010101010101010101010101010101010101010101000000000000000001010101010101010 C
b11000001011000000000000000010101010101010101010101010101010101001010101111110101 D
b1110 F
#145
0!
#150
b11100001011000000000000000010101010101010101010101010101010101001010101111110101 %
b1111 )
b111100010101010101101010101010101010101001010101011010101010101010101010101010110101110101011010010101010101010101010110101010001010101010101010101010101010101010101010101010101000000000000000001010101010101010 -
b111000010101010101101010101010101010101001010101011010101010101010101010101010110101110101011010010101010101010101010110101010001010101010101010101010101010101010101010101010101000000000000000001010101010101010 /
b11010001011000000000000000010101010101010101010101010101010101001010101111110101 0
1!
b11110010101010101010101010101010101010 @
b111100 A
b111000010101010101101010101010101010101001010101011010101010101010101010101010110101110101011010010101010101010101010110101010001010101010101010101010101010101010101010101010101000000000000000001010101010101010 C
b11010001011000000000000000010101010101010101010101010101010101001010101111110101 D
b1111 F
#155
0!
#160
b11110001011000000000000000010101010101010101010101010101010101001010101111110101 %
b10000 )
b1000000010101010101101010101010101010101001010101011010101010101010101010101010110101110101011010010101010101010101010110101010001010101010101010101010101010101010101010101010101000000000000000001010101010101010 -
b111100010101010101101010101010101010101001010101011010101010101010101010101010110101110101011010010101010101010101010110101010001010101010101010101010101010101010101010101010101000000000000000001010101010101010 /
b11100001011000000000000000010101010101010101010101010101010101001010101111110101 0
1!
b100000010101010101010101010101010101010 @
b1000000 A
b111100010101010101101010101010101010101001010101011010101010101010101010101010110101110101011010010101010101010101010110101010001010101010101010101010101010101010101010101010101000000000000000001010101010101010 C
b11100001011000000000000000010101010101010101010101010101010101001010101111110101 D
b10000 F
#165
0!
#170
b100000001011000000000000000010101010101010101010101010101010101001010101111110101 %
b10001 )
b1000100010101010101101010101010101010101001010101011010101010101010101010101010110101110101011010010101010101010101010110101010001010101010101010101010101010101010101010101010101000000000000000001010101010101010 -
b1000000010101010101101010101010101010101001010101011010101010101010101010101010110101110101011010010101010101010101010110101010001010101010101010101010101010101010101010101010101000000000000000001010101010101010 /
b11110001011000000000000000010101010101010101010101010101010101001010101111110101 0
1!
b100010010101010101010101010101010101010 @
b1000100 A
b1000000010101010101101010101010101010101001010101011010101010101010101010101010110101110101011010010101010101010101010110101010001010101010101010101010101010101010101010101010101000000000000000001010101010101010 C
b11110001011000000000000000010101010101010101010101010101010101001010101111110101 D
b10001 F
#175
0!
#180
b100010001011000000000000000010101010101010101010101010101010101001010101111110101 %
b10010 )
b1001000010101010101101010101010101010101001010101011010101010101010101010101010110101110101011010010101010101010101010110101010001010101010101010101010101010101010101010101010101000000000000000001010101010101010 -
b1000100010101010101101010101010101010101001010101011010101010101010101010101010110101110101011010010101010101010101010110101010001010101010101010101010101010101010101010101010101000000000000000001010101010101010 /
b100000001011000000000000000010101010101010101010101010101010101001010101111110101 0
1!
b100100010101010101010101010101010101010 @
b1001000 A
b1000100010101010101101010101010101010101001010101011010101010101010101010101010110101110101011010010101010101010101010110101010001010101010101010101010101010101010101010101010101000000000000000001010101010101010 C
b100000001011000000000000000010101010101010101010101010101010101001010101111110101 D
b10010 F
#185
0!
#190
b100100001011000000000000000010101010101010101010101010101010101001010101111110101 %
b10011 )
b1001100010101010101101010101010101010101001010101011010101010101010101010101010110101110101011010010101010101010101010110101010001010101010101010101010101010101010101010101010101000000000000000001010101010101010 -
b1001000010101010101101010101010101010101001010101011010101010101010101010101010110101110101011010010101010101010101010110101010001010101010101010101010101010101010101010101010101000000000000000001010101010101010 /
b100010001011000000000000000010101010101010101010101010101010101001010101111110101 0
1!
b100110010101010101010101010101010101010 @
b1001100 A
b1001000010101010101101010101010101010101001010101011010101010101010101010101010110101110101011010010101010101010101010110101010001010101010101010101010101010101010101010101010101000000000000000001010101010101010 C
b100010001011000000000000000010101010101010101010101010101010101001010101111110101 D
b10011 F
#195
0!
#200
b100110001011000000000000000010101010101010101010101010101010101001010101111110101 %
b10100 )
b1010000010101010101101010101010101010101001010101011010101010101010101010101010110101110101011010010101010101010101010110101010001010101010101010101010101010101010101010101010101000000000000000001010101010101010 -
b1001100010101010101101010101010101010101001010101011010101010101010101010101010110101110101011010010101010101010101010110101010001010101010101010101010101010101010101010101010101000000000000000001010101010101010 /
b100100001011000000000000000010101010101010101010101010101010101001010101111110101 0
1!
b101000010101010101010101010101010101010 @
b1010000 A
b1001100010101010101101010101010101010101001010101011010101010101010101010101010110101110101011010010101010101010101010110101010001010101010101010101010101010101010101010101010101000000000000000001010101010101010 C
b100100001011000000000000000010101010101010101010101010101010101001010101111110101 D
b10100 F
#205
0!
#210
b101000001011000000000000000010101010101010101010101010101010101001010101111110101 %
b10101 )
b1010100010101010101101010101010101010101001010101011010101010101010101010101010110101110101011010010101010101010101010110101010001010101010101010101010101010101010101010101010101000000000000000001010101010101010 -
b1010000010101010101101010101010101010101001010101011010101010101010101010101010110101110101011010010101010101010101010110101010001010101010101010101010101010101010101010101010101000000000000000001010101010101010 /
b100110001011000000000000000010101010101010101010101010101010101001010101111110101 0
1!
b101010010101010101010101010101010101010 @
b1010100 A
b1010000010101010101101010101010101010101001010101011010101010101010101010101010110101110101011010010101010101010101010110101010001010101010101010101010101010101010101010101010101000000000000000001010101010101010 C
b100110001011000000000000000010101010101010101010101010101010101001010101111110101 D
b10101 F
#215
0!
#220
b101010001011000000000000000010101010101010101010101010101010101001010101111110101 %
b10110 )
b1011000010101010101101010101010101010101001010101011010101010101010101010101010110101110101011010010101010101010101010110101010001010101010101010101010101010101010101010101010101000000000000000001010101010101010 -
b1010100010101010101101010101010101010101001010101011010101010101010101010101010110101110101011010010101010101010101010110101010001010101010101010101010101010101010101010101010101000000000000000001010101010101010 /
b101000001011000000000000000010101010101010101010101010101010101001010101111110101 0
1!
b101100010101010101010101010101010101010 @
b1011000 A
b1010100010101010101101010101010101010101001010101011010101010101010101010101010110101110101011010010101010101010101010110101010001010101010101010101010101010101010101010101010101000000000000000001010101010101010 C
b101000001011000000000000000010101010101010101010101010101010101001010101111110101 D
b10110 F
#225
0!
#230
b101100001011000000000000000010101010101010101010101010101010101001010101111110101 %
b10111 )
b1011100010101010101101010101010101010101001010101011010101010101010101010101010110101110101011010010101010101010101010110101010001010101010101010101010101010101010101010101010101000000000000000001010101010101010 -
b1011000010101010101101010101010101010101001010101011010101010101010101010101010110101110101011010010101010101010101010110101010001010101010101010101010101010101010101010101010101000000000000000001010101010101010 /
b101010001011000000000000000010101010101010101010101010101010101001010101111110101 0
1!
b101110010101010101010101010101010101010 @
b1011100 A
b1011000010101010101101010101010101010101001010101011010101010101010101010101010110101110101011010010101010101010101010110101010001010101010101010101010101010101010101010101010101000000000000000001010101010101010 C
b101010001011000000000000000010101010101010101010101010101010101001010101111110101 D
b10111 F
#235
0!
#240
b101110001011000000000000000010101010101010101010101010101010101001010101111110101 %
b11000 )
b1100000010101010101101010101010101010101001010101011010101010101010101010101010110101110101011010010101010101010101010110101010001010101010101010101010101010101010101010101010101000000000000000001010101010101010 -
b1011100010101010101101010101010101010101001010101011010101010101010101010101010110101110101011010010101010101010101010110101010001010101010101010101010101010101010101010101010101000000000000000001010101010101010 /
b101100001011000000000000000010101010101010101010101010101010101001010101111110101 0
1!
b110000010101010101010101010101010101010 @
b1100000 A
b1011100010101010101101010101010101010101001010101011010101010101010101010101010110101110101011010010101010101010101010110101010001010101010101010101010101010101010101010101010101000000000000000001010101010101010 C
b101100001011000000000000000010101010101010101010101010101010101001010101111110101 D
b11000 F
#245
0!
#250
b110000001011000000000000000010101010101010101010101010101010101001010101111110101 %
b11001 )
b1100100010101010101101010101010101010101001010101011010101010101010101010101010110101110101011010010101010101010101010110101010001010101010101010101010101010101010101010101010101000000000000000001010101010101010 -
b1100000010101010101101010101010101010101001010101011010101010101010101010101010110101110101011010010101010101010101010110101010001010101010101010101010101010101010101010101010101000000000000000001010101010101010 /
b101110001011000000000000000010101010101010101010101010101010101001010101111110101 0
1!
b110010010101010101010101010101010101010 @
b1100100 A
b1100000010101010101101010101010101010101001010101011010101010101010101010101010110101110101011010010101010101010101010110101010001010101010101010101010101010101010101010101010101000000000000000001010101010101010 C
b101110001011000000000000000010101010101010101010101010101010101001010101111110101 D
b11001 F
#255
0!
#260
b110010001011000000000000000010101010101010101010101010101010101001010101111110101 %
b11010 )
b1101000010101010101101010101010101010101001010101011010101010101010101010101010110101110101011010010101010101010101010110101010001010101010101010101010101010101010101010101010101000000000000000001010101010101010 -
b1100100010101010101101010101010101010101001010101011010101010101010101010101010110101110101011010010101010101010101010110101010001010101010101010101010101010101010101010101010101000000000000000001010101010101010 /
b110000001011000000000000000010101010101010101010101010101010101001010101111110101 0
1!
b110100010101010101010101010101010101010 @
b1101000 A
b1100100010101010101101010101010101010101001010101011010101010101010101010101010110101110101011010010101010101010101010110101010001010101010101010101010101010101010101010101010101000000000000000001010101010101010 C
b110000001011000000000000000010101010101010101010101010101010101001010101111110101 D
b11010 F
#265
0!
#270
b110100001011000000000000000010101010101010101010101010101010101001010101111110101 %
b11011 )
b1101100010101010101101010101010101010101001010101011010101010101010101010101010110101110101011010010101010101010101010110101010001010101010101010101010101010101010101010101010101000000000000000001010101010101010 -
b1101000010101010101101010101010101010101001010101011010101010101010101010101010110101110101011010010101010101010101010110101010001010101010101010101010101010101010101010101010101000000000000000001010101010101010 /
b110010001011000000000000000010101010101010101010101010101010101001010101111110101 0
1!
b110110010101010101010101010101010101010 @
b1101100 A
b1101000010101010101101010101010101010101001010101011010101010101010101010101010110101110101011010010101010101010101010110101010001010101010101010101010101010101010101010101010101000000000000000001010101010101010 C
b110010001011000000000000000010101010101010101010101010101010101001010101111110101 D
b11011 F
#275
0!
#280
b110110001011000000000000000010101010101010101010101010101010101001010101111110101 %
b11100 )
b1110000010101010101101010101010101010101001010101011010101010101010101010101010110101110101011010010101010101010101010110101010001010101010101010101010101010101010101010101010101000000000000000001010101010101010 -
b1101100010101010101101010101010101010101001010101011010101010101010101010101010110101110101011010010101010101010101010110101010001010101010101010101010101010101010101010101010101000000000000000001010101010101010 /
b110100001011000000000000000010101010101010101010101010101010101001010101111110101 0
1!
b111000010101010101010101010101010101010 @
b1110000 A
b1101100010101010101101010101010101010101001010101011010101010101010101010101010110101110101011010010101010101010101010110101010001010101010101010101010101010101010101010101010101000000000000000001010101010101010 C
b110100001011000000000000000010101010101010101010101010101010101001010101111110101 D
b11100 F
#285
0!
#290
b111000001011000000000000000010101010101010101010101010101010101001010101111110101 %
b11101 )
b1110100010101010101101010101010101010101001010101011010101010101010101010101010110101110101011010010101010101010101010110101010001010101010101010101010101010101010101010101010101000000000000000001010101010101010 -
b1110000010101010101101010101010101010101001010101011010101010101010101010101010110101110101011010010101010101010101010110101010001010101010101010101010101010101010101010101010101000000000000000001010101010101010 /
b110110001011000000000000000010101010101010101010101010101010101001010101111110101 0
1!
b111010010101010101010101010101010101010 @
b1110100 A
b1110000010101010101101010101010101010101001010101011010101010101010101010101010110101110101011010010101010101010101010110101010001010101010101010101010101010101010101010101010101000000000000000001010101010101010 C
b110110001011000000000000000010101010101010101010101010101010101001010101111110101 D
b11101 F
#295
0!
#300
b111010001011000000000000000010101010101010101010101010101010101001010101111110101 %
b11110 )
b1111000010101010101101010101010101010101001010101011010101010101010101010101010110101110101011010010101010101010101010110101010001010101010101010101010101010101010101010101010101000000000000000001010101010101010 -
b1110100010101010101101010101010101010101001010101011010101010101010101010101010110101110101011010010101010101010101010110101010001010101010101010101010101010101010101010101010101000000000000000001010101010101010 /
b111000001011000000000000000010101010101010101010101010101010101001010101111110101 0
1!
b111100010101010101010101010101010101010 @
b1111000 A
b1110100010101010101101010101010101010101001010101011010101010101010101010101010110101110101011010010101010101010101010110101010001010101010101010101010101010101010101010101010101000000000000000001010101010101010 C
b111000001011000000000000000010101010101010101010101010101010101001010101111110101 D
b11110 F
#305
0!
#310
1"
b111100001011000000000000000010101010101010101010101010101010101001010101111110101 %
1'
b11111 )
b1111100010101010101101010101010101010101001010101011010101010101010101010101010110101110101011010010101010101010101010110101010001010101010101010101010101010101010101010101010101000000000000000001010101010101010 -
b1111000010101010101101010101010101010101001010101011010101010101010101010101010110101110101011010010101010101010101010110101010001010101010101010101010101010101010101010101010101000000000000000001010101010101010 /
b111010001011000000000000000010101010101010101010101010101010101001010101111110101 0
1!
b111110010101010101010101010101010101010 @
b1111100 A
b1111000010101010101101010101010101010101001010101011010101010101010101010101010110101110101011010010101010101010101010110101010001010101010101010101010101010101010101010101010101000000000000000001010101010101010 C
b111010001011000000000000000010101010101010101010101010101010101001010101111110101 D
b11111 F
