dump.vcd
$date
	Sat May 23 16:55:40 2020
$end
$version
	Bluespec VCD dumper 2.1
$end
$timescale
	1 us
$end
$scope module main $end
$scope module top $end
$var reg 1 ! CLK $end
$var reg 1 ! CLK $end
$var reg 1 " CAN_FIRE_RL_done $end
$var reg 1 # CAN_FIRE_RL_pipe $end
$var reg 71 $ IF_s2_reg_id_ex_2_BITS_203_TO_197_5_EQ_0b11001_ETC___d185 $end
$var reg 106 % IF_s2_reg_id_ex_2_BITS_203_TO_197_5_EQ_0b11001_ETC___d186 $end
$var reg 1 & RST_N $end
$var reg 1 ' WILL_FIRE_RL_done $end
$var reg 1 ( WILL_FIRE_RL_pipe $end
$var reg 32 ) b__h5082 $end
$var reg 123 * s1_reg_if_id_8_BITS_24_TO_20_7_CONCAT_s1_reg_i_ETC___d78 $end
$var reg 74 + s1_reg_if_id_8_BITS_31_TO_25_4_CONCAT_s1_reg_i_ETC___d76 $end
$var reg 96 , s1_reg_if_id_8_BITS_31_TO_25_4_CONCAT_s1_reg_i_ETC___d77 $end
$var reg 236 - s1_reg_if_id_8_BITS_63_TO_32_2_CONCAT_s1_reg_i_ETC___d81 $end
$var reg 140 . s1_reg_if_id_8_BITS_6_TO_0_0_CONCAT_s1_reg_if__ETC___d79 $end
$var reg 236 / s2_reg_id_ex___d82 $end
$var reg 106 0 s3_reg_ex_mem___d187 $end
$var reg 1 ? regfile_flag $end
$var reg 64 @ s1_reg_if_id $end
$var reg 32 A s1_reg_pc $end
$var reg 33 B s2_reg_branch $end
$var reg 236 C s2_reg_id_ex $end
$var reg 106 D s3_reg_ex_mem $end
$var reg 38 E s4_reg_mem_wb $end
$var reg 32 F step $end
$upscope $end
$upscope $end
$enddefinitions $end
1!
0"
1#
b11101010101010101010101010101010101010101010101010101001010101010001010 $
b1010101010101010101010101010101010111101010101010101010101010101010101010101010101010101001010101010001010 %
0&
0'
1(
b10101010101010101010101010101010 )
b10101010101010100101010101101010101010101010101010101011010111010101101001010101010101010101011010101000101010101010101010 *
b10101011010111010101101001010101010101010101011010101000101010101010101010 +
b101010101010101010101010101011010111010101101001010101010101010101011010101000101010101010101010 ,
b10101010101010101010101010101010010101010101101010101010101010101001010101011010101010101010101010101010110101110101011010010101010101010101010110101010001010101010101010101010101010101010101010101010101000000000000000000000000000001010 -
b1010101010110101010101010101010100101010101101010101010101010101010101011010111010101101001010101010101010101011010101000101010101010101010 .
b10101010101010101010101010101010101010101010101010101010101010101010101010101010101010101010101010101010101010101010101010101010101010101010101010101010101010101010101010101010101010101010101010101010101010101010101010101010101010101010 /
b1010101010101010101010101010101010101010101010101010101010101010101010101010101010101010101010101010101010 0
0?
b1010101010101010101010101010111010101010101010101010101010101010 @
b0 A
b10101010101010101010010101011110 B
b10101010101010101010101010101010010101010101101010101010101010101001010101011010101010101010101010101010110101110101011010010101010101010101010110101010001010101010101010101010101010101010101010101010101000000000000000000000000000001010 C
b1010101010101010101010101010101010111101010101010101010101010101010101010101010101010101001010101010001010 D
b10101000000000000000001010101010101010 E
b0 F
b11000000000000000000000000000010101010101010101010101001010101111110101 $
b1010101010101010101010101010101001011000000000000000000000000000010101010101010101010101001010101111110101 %
b0 )
b10101010101010101010101010101110010101010101101010101010101010101001010101011010101010101010101010101010110101110101011010010101010101010101010110101010001010101010101010101010101010101010101010101010101010101010101010101010101010101010 -
b10101010101010101010101010101010010101010101101010101010101010101001010101011010101010101010101010101010110101110101011010010101010101010101010110101010001010101010101010101010101010101010101010101010101000000000000000000000000000001010 /
b1010101010101010101010101010101010111101010101010101010101010101010101010101010101010101001010101010001010 0
#5
0!
1&
#10
b11101010101010101010101010101010101010101010101010101001010101111110101 $
b1010101010101010101010101010111001011101010101010101010101010101010101010101010101010101001010101111110101 %
b1 )
b1010000000000101000000000000000000000000000000000000000000000000000 *
b1010000000000101000000000000000000000000000000000000000000000000000 +
b1010000000000101000000000000000000000000000000000000000000000000000 ,
b100110001110100000000000000000000000000000000000000000000000000000000000000010100000000001010000000000000000000000000000000000000000000000000000000000000000000000000000000000000000000000000000000000000000000 -
b11000111010000000000000000000000000000000000000000000000000000000000000001010000000000101000000000000000000000000000000000000000000000000000 .
b10101010101010101010101010101110010101010101101010101010101010101001010101011010101010101010101010101010110101110101011010010101010101010101010110101010001010101010101010101010101010101010101010101010101010101010101010101010101010101010 /
b1010101010101010101010101010101001011000000000000000000000000000010101010101010101010101001010101111110101 0
1!
b10000000000000000000000101001100011 @
b100 A
b10101010101010101010010101100010 B
b10101010101010101010101010101110010101010101101010101010101010101001010101011010101010101010101010101010110101110101011010010101010101010101010110101010001010101010101010101010101010101010101010101010101010101010101010101010101010101010 C
b1010101010101010101010101010101001011000000000000000000000000000010101010101010101010101001010101111110101 D
b101010101010101010101010101010101010 E
b1 F
#15
0!
#20
b11000000000000000000000000000000000000000000000000000000000001010010100 $
b10000011000000000000000000000000000000000000000000000000000000000001010010100 %
b10 )
b10000000000010000000000000000000000000000000100000000000101000000000000000000000010000100000000100010000000000000000001 *
b101000000000000000000000010000100000000100010000000000000000001 +
b100000000000101000000000000000000000010000100000000100010000000000000000001 ,
b1000010001100001000010000100000000000100000000000000000000000000000001000000000001010000000000000000000000100001000000001000100000000000000000010000000000000000000000000000000100000000000000000000000000000001 -
b1000110000100001000010000000000010000000000000000000000000000000100000000000101000000000000000000000010000100000000100010000000000000000001 .
b100110001110100000000000000000000000000000000000000000000000000000000000000010100000000001010000000000000000000000000000000000000000000000000000000000000000000000000000000000000000000000000000000000000000000 /
b1010101010101010101010101010111001011101010101010101010101010101010101010101010101010101001010101111110101 0
1!
b100000000000000100001000000010100011 @
b1000 A
b100000000000000000000000000011000 B
b100110001110100000000000000000000000000000000000000000000000000000000000000010100000000001010000000000000000000000000000000000000000000000000000000000000000000000000000000000000000000000000000000000000000000 C
b1010101010101010101010101010111001011101010101010101010101010101010101010101010101010101001010101111110101 D
b1010100000000000000000000000000001010 E
b10 F
#25
0!
#30
b10000000000000000000000000000000010000000000000000000000000000001000001 $
b100000010000000000000000000000000000000010000000000000000000000000000001000001 %
b11 )
b1110000000000000011100000000000000000000001101000000000100000000000000000111100000111100000000000000000000 *
b1101000000000100000000000000000111100000111100000000000000000000 +
b11100000000000000000000001101000000000100000000000000000111100000111100000000000000000000 ,
b11100011001100011000010000000000000000011100000000000000111000000000000000000000011010000000001000000000000000001111000001111000000000000000000000000000000000000000000000000000100000000000000000000000000000000 -
b1100110001100001000000000000000001110000000000000011100000000000000000000001101000000000100000000000000000111100000111100000000000000000000 .
b1000010001100001000010000100000000000100000000000000000000000000000001000000000001010000000000000000000000100001000000001000100000000000000000010000000000000000000000000000000100000000000000000000000000000001 /
b10000011000000000000000000000000000000000000000000000000000000000001010010100 0
1!
b1110000000000000000001111000110110011 @
b11100 A
b100000001000 B
b1000010001100001000010000100000000000100000000000000000000000000000001000000000001010000000000000000000000100001000000001000100000000000000000010000000000000000000000000000000100000000000000000000000000000001 C
b10000011000000000000000000000000000000000000000000000000000000000001010010100 D
b1010110101010101010101010101010101010 E
b11 F
#35
0!
#40
b10000011 $
b1110011100000000000000000000000000000000000000000000000000000000000000010000011 %
b100 )
b10101010101010100101010101101010101010101010101010101011010111010101101001010101010101010101011010101000101010101010101010 *
b10101011010111010101101001010101010101010101011010101000101010101010101010 +
b101010101010101010101010101011010111010101101001010101010101010101011010101000101010101010101010 ,
b100000010101010101101010101010101010101001010101011010101010101010101010101010110101110101011010010101010101010101010110101010001010101010101010101010101010101010101010101010101000000000000000001010101010101010 -
b1010101010110101010101010101010100101010101101010101010101010101010101011010111010101101001010101010101010101011010101000101010101010101010 .
b11100011001100011000010000000000000000011100000000000000111000000000000000000000011010000000001000000000000000001111000001111000000000000000000000000000000000000000000000000000100000000000000000000000000000000 /
b100000010000000000000000000000000000000010000000000000000000000000000001000001 0
1!
b10000010101010101010101010101010101010 @
b100000 A
b100000011110 B
b11100011001100011000010000000000000000011100000000000000111000000000000000000000011010000000001000000000000000001111000001111000000000000000000000000000000000000000000000000000100000000000000000000000000000000 C
b100000010000000000000000000000000000000010000000000000000000000000000001000001 D
b1010000000000000000000000000000000000 E
b100 F
#45
0!
#50
b11000000000000000010101010101010101010101010101010101001010101111110101 $
b10000001011000000000000000010101010101010101010101010101010101001010101111110101 %
b101 )
b100100010101010101101010101010101010101001010101011010101010101010101010101010110101110101011010010101010101010101010110101010001010101010101010101010101010101010101010101010101000000000000000001010101010101010 -
b100000010101010101101010101010101010101001010101011010101010101010101010101010110101110101011010010101010101010101010110101010001010101010101010101010101010101010101010101010101000000000000000001010101010101010 /
b1110011100000000000000000000000000000000000000000000000000000000000000010000011 0
1!
b10010010101010101010101010101010101010 @
b100100 A
b11111111111111111111101011010100 B
b100000010101010101101010101010101010101001010101011010101010101010101010101010110101110101011010010101010101010101010110101010001010101010101010101010101010101010101010101010101000000000000000001010101010101010 C
b1110011100000000000000000000000000000000000000000000000000000000000000010000011 D
b100000000000000000000000000000001 E
b101 F
#55
0!
#60
b10010001011000000000000000010101010101010101010101010101010101001010101111110101 %
b110 )
b101000010101010101101010101010101010101001010101011010101010101010101010101010110101110101011010010101010101010101010110101010001010101010101010101010101010101010101010101010101000000000000000001010101010101010 -
b100100010101010101101010101010101010101001010101011010101010101010101010101010110101110101011010010101010101010101010110101010001010101010101010101010101010101010101010101010101000000000000000001010101010101010 /
b10000001011000000000000000010101010101010101010101010101010101001010101111110101 0
1!
b10100010101010101010101010101010101010 @
b101000 A
b11111111111111111111101011011000 B
b100100010101010101101010101010101010101001010101011010101010101010101010101010110101110101011010010101010101010101010110101010001010101010101010101010101010101010101010101010101000000000000000001010101010101010 C
b10000001011000000000000000010101010101010101010101010101010101001010101111110101 D
b10001100000000000000000000000000000000 E
b110 F
#65
0!
#70
b10100001011000000000000000010101010101010101010101010101010101001010101111110101 %
b111 )
b101100010101010101101010101010101010101001010101011010101010101010101010101010110101110101011010010101010101010101010110101010001010101010101010101010101010101010101010101010101000000000000000001010101010101010 -
b101000010101010101101010101010101010101001010101011010101010101010101010101010110101110101011010010101010101010101010110101010001010101010101010101010101010101010101010101010101000000000000000001010101010101010 /
b10010001011000000000000000010101010101010101010101010101010101001010101111110101 0
1!
b10110010101010101010101010101010101010 @
b101100 A
b11111111111111111111101011011100 B
b101000010101010101101010101010101010101001010101011010101010101010101010101010110101110101011010010101010101010101010110101010001010101010101010101010101010101010101010101010101000000000000000001010101010101010 C
b10010001011000000000000000010101010101010101010101010101010101001010101111110101 D
b1010100000000000000001010101010101010 E
b111 F
#75
0!
#80
b10110001011000000000000000010101010101010101010101010101010101001010101111110101 %
b1000 )
b110000010101010101101010101010101010101001010101011010101010101010101010101010110101110101011010010101010101010101010110101010001010101010101010101010101010101010101010101010101000000000000000001010101010101010 -
b101100010101010101101010101010101010101001010101011010101010101010101010101010110101110101011010010101010101010101010110101010001010101010101010101010101010101010101010101010101000000000000000001010101010101010 /
b10100001011000000000000000010101010101010101010101010101010101001010101111110101 0
1!
b11000010101010101010101010101010101010 @
b110000 A
b11111111111111111111101011100000 B
b101100010101010101101010101010101010101001010101011010101010101010101010101010110101110101011010010101010101010101010110101010001010101010101010101010101010101010101010101010101000000000000000001010101010101010 C
b10100001011000000000000000010101010101010101010101010101010101001010101111110101 D
b1000 F
#85
0!
#90
b11000001011000000000000000010101010101010101010101010101010101001010101111110101 %
b1001 )
b110100010101010101101010101010101010101001010101011010101010101010101010101010110101110101011010010101010101010101010110101010001010101010101010101010101010101010101010101010101000000000000000001010101010101010 -
b110000010101010101101010101010101010101001010101011010101010101010101010101010110101110101011010010101010101010101010110101010001010101010101010101010101010101010101010101010101000000000000000001010101010101010 /
b10110001011000000000000000010101010101010101010101010101010101001010101111110101 0
1!
b11010010101010101010101010101010101010 @
b110100 A
b11111111111111111111101011100100 B
b110000010101010101101010101010101010101001010101011010101010101010101010101010110101110101011010010101010101010101010110101010001010101010101010101010101010101010101010101010101000000000000000001010101010101010 C
b10110001011000000000000000010101010101010101010101010101010101001010101111110101 D
b1001 F
#95
0!
#100
b11010001011000000000000000010101010101010101010101010101010101001010101111110101 %
b1010 )
b111000010101010101101010101010101010101001010101011010101010101010101010101010110101110101011010010101010101010101010110101010001010101010101010101010101010101010101010101010101000000000000000001010101010101010 -
b110100010101010101101010101010101010101001010101011010101010101010101010101010110101110101011010010101010101010101010110101010001010101010101010101010101010101010101010101010101000000000000000001010101010101010 /
b11000001011000000000000000010101010101010101010101010101010101001010101111110101 0
1!
b11100010101010101010101010101010101010 @
b111000 A
b11111111111111111111101011101000 B
b110100010101010101101010101010101010101001010101011010101010101010101010101010110101110101011010010101010101010101010110101010001010101010101010101010101010101010101010101010101000000000000000001010101010101010 C
b11000001011000000000000000010101010101010101010101010101010101001010101111110101 D
b1010 F
#105
0!
#110
b11100001011000000000000000010101010101010101010101010101010101001010101111110101 %
b1011 )
b111100010101010101101010101010101010101001010101011010101010101010101010101010110101110101011010010101010101010101010110101010001010101010101010101010101010101010101010101010101000000000000000001010101010101010 -
b111000010101010101101010101010101010101001010101011010101010101010101010101010110101110101011010010101010101010101010110101010001010101010101010101010101010101010101010101010101000000000000000001010101010101010 /
b11010001011000000000000000010101010101010101010101010101010101001010101111110101 0
1!
b11110010101010101010101010101010101010 @
b111100 A
b11111111111111111111101011101100 B
b111000010101010101101010101010101010101001010101011010101010101010101010101010110101110101011010010101010101010101010110101010001010101010101010101010101010101010101010101010101000000000000000001010101010101010 C
b11010001011000000000000000010101010101010101010101010101010101001010101111110101 D
b1011 F
#115
0!
#120
b11110001011000000000000000010101010101010101010101010101010101001010101111110101 %
b1100 )
b1000000010101010101101010101010101010101001010101011010101010101010101010101010110101110101011010010101010101010101010110101010001010101010101010101010101010101010101010101010101000000000000000001010101010101010 -
b111100010101010101101010101010101010101001010101011010101010101010101010101010110101110101011010010101010101010101010110101010001010101010101010101010101010101010101010101010101000000000000000001010101010101010 /
b11100001011000000000000000010101010101010101010101010101010101001010101111110101 0
1!
b100000010101010101010101010101010101010 @
b1000000 A
b11111111111111111111101011110000 B
b111100010101010101101010101010101010101001010101011010101010101010101010101010110101110101011010010101010101010101010110101010001010101010101010101010101010101010101010101010101000000000000000001010101010101010 C
b11100001011000000000000000010101010101010101010101010101010101001010101111110101 D
b1100 F
#125
0!
#130
b100000001011000000000000000010101010101010101010101010101010101001010101111110101 %
b1101 )
b1000100010101010101101010101010101010101001010101011010101010101010101010101010110101110101011010010101010101010101010110101010001010101010101010101010101010101010101010101010101000000000000000001010101010101010 -
b1000000010101010101101010101010101010101001010101011010101010101010101010101010110101110101011010010101010101010101010110101010001010101010101010101010101010101010101010101010101000000000000000001010101010101010 /
b11110001011000000000000000010101010101010101010101010101010101001010101111110101 0
1!
b100010010101010101010101010101010101010 @
b1000100 A
b11111111111111111111101011110100 B
b1000000010101010101101010101010101010101001010101011010101010101010101010101010110101110101011010010101010101010101010110101010001010101010101010101010101010101010101010101010101000000000000000001010101010101010 C
b11110001011000000000000000010101010101010101010101010101010101001010101111110101 D
b1101 F
#135
0!
#140
b100010001011000000000000000010101010101010101010101010101010101001010101111110101 %
b1110 )
b1001000010101010101101010101010101010101001010101011010101010101010101010101010110101110101011010010101010101010101010110101010001010101010101010101010101010101010101010101010101000000000000000001010101010101010 -
b1000100010101010101101010101010101010101001010101011010101010101010101010101010110101110101011010010101010101010101010110101010001010101010101010101010101010101010101010101010101000000000000000001010101010101010 /
b100000001011000000000000000010101010101010101010101010101010101001010101111110101 0
1!
b100100010101010101010101010101010101010 @
b1001000 A
b11111111111111111111101011111000 B
b1000100010101010101101010101010101010101001010101011010101010101010101010101010110101110101011010010101010101010101010110101010001010101010101010101010101010101010101010101010101000000000000000001010101010101010 C
b100000001011000000000000000010101010101010101010101010101010101001010101111110101 D
b1110 F
#145
0!
#150
b100100001011000000000000000010101010101010101010101010101010101001010101111110101 %
b1111 )
b1001100010101010101101010101010101010101001010101011010101010101010101010101010110101110101011010010101010101010101010110101010001010101010101010101010101010101010101010101010101000000000000000001010101010101010 -
b1001000010101010101101010101010101010101001010101011010101010101010101010101010110101110101011010010101010101010101010110101010001010101010101010101010101010101010101010101010101000000000000000001010101010101010 /
b100010001011000000000000000010101010101010101010101010101010101001010101111110101 0
1!
b100110010101010101010101010101010101010 @
b1001100 A
b11111111111111111111101011111100 B
b1001000010101010101101010101010101010101001010101011010101010101010101010101010110101110101011010010101010101010101010110101010001010101010101010101010101010101010101010101010101000000000000000001010101010101010 C
b100010001011000000000000000010101010101010101010101010101010101001010101111110101 D
b1111 F
#155
0!
#160
b100110001011000000000000000010101010101010101010101010101010101001010101111110101 %
b10000 )
b1010000010101010101101010101010101010101001010101011010101010101010101010101010110101110101011010010101010101010101010110101010001010101010101010101010101010101010101010101010101000000000000000001010101010101010 -
b1001100010101010101101010101010101010101001010101011010101010101010101010101010110101110101011010010101010101010101010110101010001010101010101010101010101010101010101010101010101000000000000000001010101010101010 /
b100100001011000000000000000010101010101010101010101010101010101001010101111110101 0
1!
b101000010101010101010101010101010101010 @
b1010000 A
b11111111111111111111101100000000 B
b1001100010101010101101010101010101010101001010101011010101010101010101010101010110101110101011010010101010101010101010110101010001010101010101010101010101010101010101010101010101000000000000000001010101010101010 C
b100100001011000000000000000010101010101010101010101010101010101001010101111110101 D
b10000 F
#165
0!
#170
b101000001011000000000000000010101010101010101010101010101010101001010101111110101 %
b10001 )
b1010100010101010101101010101010101010101001010101011010101010101010101010101010110101110101011010010101010101010101010110101010001010101010101010101010101010101010101010101010101000000000000000001010101010101010 -
b1010000010101010101101010101010101010101001010101011010101010101010101010101010110101110101011010010101010101010101010110101010001010101010101010101010101010101010101010101010101000000000000000001010101010101010 /
b100110001011000000000000000010101010101010101010101010101010101001010101111110101 0
1!
b101010010101010101010101010101010101010 @
b1010100 A
b11111111111111111111101100000100 B
b1010000010101010101101010101010101010101001010101011010101010101010101010101010110101110101011010010101010101010101010110101010001010101010101010101010101010101010101010101010101000000000000000001010101010101010 C
b100110001011000000000000000010101010101010101010101010101010101001010101111110101 D
b10001 F
#175
0!
#180
b101010001011000000000000000010101010101010101010101010101010101001010101111110101 %
b10010 )
b1011000010101010101101010101010101010101001010101011010101010101010101010101010110101110101011010010101010101010101010110101010001010101010101010101010101010101010101010101010101000000000000000001010101010101010 -
b1010100010101010101101010101010101010101001010101011010101010101010101010101010110101110101011010010101010101010101010110101010001010101010101010101010101010101010101010101010101000000000000000001010101010101010 /
b101000001011000000000000000010101010101010101010101010101010101001010101111110101 0
1!
b101100010101010101010101010101010101010 @
b1011000 A
b11111111111111111111101100001000 B
b1010100010101010101101010101010101010101001010101011010101010101010101010101010110101110101011010010101010101010101010110101010001010101010101010101010101010101010101010101010101000000000000000001010101010101010 C
b101000001011000000000000000010101010101010101010101010101010101001010101111110101 D
b10010 F
#185
0!
#190
b101100001011000000000000000010101010101010101010101010101010101001010101111110101 %
b10011 )
b1011100010101010101101010101010101010101001010101011010101010101010101010101010110101110101011010010101010101010101010110101010001010101010101010101010101010101010101010101010101000000000000000001010101010101010 -
b1011000010101010101101010101010101010101001010101011010101010101010101010101010110101110101011010010101010101010101010110101010001010101010101010101010101010101010101010101010101000000000000000001010101010101010 /
b101010001011000000000000000010101010101010101010101010101010101001010101111110101 0
1!
b101110010101010101010101010101010101010 @
b1011100 A
b11111111111111111111101100001100 B
b1011000010101010101101010101010101010101001010101011010101010101010101010101010110101110101011010010101010101010101010110101010001010101010101010101010101010101010101010101010101000000000000000001010101010101010 C
b101010001011000000000000000010101010101010101010101010101010101001010101111110101 D
b10011 F
#195
0!
#200
1"
b101110001011000000000000000010101010101010101010101010101010101001010101111110101 %
1'
b10100 )
b1100000010101010101101010101010101010101001010101011010101010101010101010101010110101110101011010010101010101010101010110101010001010101010101010101010101010101010101010101010101000000000000000001010101010101010 -
b1011100010101010101101010101010101010101001010101011010101010101010101010101010110101110101011010010101010101010101010110101010001010101010101010101010101010101010101010101010101000000000000000001010101010101010 /
b101100001011000000000000000010101010101010101010101010101010101001010101111110101 0
1!
b110000010101010101010101010101010101010 @
b1100000 A
b11111111111111111111101100010000 B
b1011100010101010101101010101010101010101001010101011010101010101010101010101010110101110101011010010101010101010101010110101010001010101010101010101010101010101010101010101010101000000000000000001010101010101010 C
b101100001011000000000000000010101010101010101010101010101010101001010101111110101 D
b10100 F
