dump.vcd
$date
	Sat May 23 20:44:47 2020
$end
$version
	Bluespec VCD dumper 2.1
$end
$timescale
	1 us
$end
$scope module main $end
$scope module top $end
$var reg 1 ! CLK $end
$var reg 1 ! CLK $end
$var reg 1 " CAN_FIRE_RL_done $end
$var reg 1 # CAN_FIRE_RL_pipe $end
$var reg 65 $ IF_s1_reg_if_id_8_BITS_20_TO_16_4_EQ_0_5_THEN__ETC___d81 $end
$var reg 65 % IF_s2_reg_branch_BIT_32_THEN_s2_reg_branch_BIT_ETC___d17 $end
$var reg 72 & IF_s2_reg_id_ex_3_BITS_204_TO_198_7_EQ_0b11001_ETC___d187 $end
$var reg 107 ' IF_s2_reg_id_ex_3_BITS_204_TO_198_7_EQ_0b11001_ETC___d188 $end
$var reg 1 ( RST_N $end
$var reg 1 ) WILL_FIRE_RL_done $end
$var reg 1 * WILL_FIRE_RL_pipe $end
$var reg 32 + b__h5247 $end
$var reg 123 , s1_reg_if_id_8_BITS_25_TO_21_8_CONCAT_s1_reg_i_ETC___d79 $end
$var reg 74 - s1_reg_if_id_8_BITS_32_TO_26_5_CONCAT_s1_reg_i_ETC___d77 $end
$var reg 96 . s1_reg_if_id_8_BITS_32_TO_26_5_CONCAT_s1_reg_i_ETC___d78 $end
$var reg 237 / s1_reg_if_id_8_BITS_64_TO_33_3_CONCAT_s1_reg_i_ETC___d82 $end
$var reg 140 0 s1_reg_if_id_8_BITS_7_TO_1_1_CONCAT_s1_reg_if__ETC___d80 $end
$var reg 65 1 s1_reg_if_id___d18 $end
$var reg 237 2 s2_reg_id_ex___d83 $end
$var reg 107 3 s3_reg_ex_mem___d189 $end
$var reg 1 B regfile_flag $end
$var reg 65 C s1_reg_if_id $end
$var reg 32 D s1_reg_pc $end
$var reg 33 E s2_reg_branch $end
$var reg 237 F s2_reg_id_ex $end
$var reg 107 G s3_reg_ex_mem $end
$var reg 39 H s4_reg_mem_wb $end
$var reg 32 I step $end
$upscope $end
$upscope $end
$enddefinitions $end
1!
0"
1#
b1010101010101010101010101010101010100 $
b10101010101010101010101010101110101010101010101010101010101010101 %
b110101010101010101010101010101010101010101010101010101101010101010101010 &
b1010101010101010101010101010101010110101010101010101010101010101010101010101010101010101101010101010101010 '
0(
0)
1*
b10101010101010101010101010101010 +
b101010101010101011010101010010101010101010101010101010100101000101010010100101010101010101010100101010111010101010001010101 ,
b1010100101000101010010100101010101010101010100101010111010101010001010101 -
b10101010101010101010101010100101000101010010100101010101010101010100101010111010101010001010101 .
b10101010101010101010101010101011010101010100101010101010101010101101010101001010101010101010101010101010010100010101001010010101010101010101010010101011101010101000101010100000000000000000000000000001010101010101010101010101010101010100 /
b10101010101001010101010101010101011010101010010101010101010101010101010100101000101010010100101010101010101010100101010111010101010001010101 0
b1010101010101010101010101010101010101010101010101010101010101010 1
b10101010101010101010101010101010101010101010101010101010101010101010101010101010101010101010101010101010101010101010101010101010101010101010101010101010101010101010101010101010101010101010101010101010101010101010101010101010101010101010 2
b1010101010101010101010101010101010101010101010101010101010101010101010101010101010101010101010101010101010 3
0B
b10101010101010101010101010101110101010101010101010101010101010101 C
b0 D
b1010101010101010101101010011111 E
b10101010101010101010101010101011010101010100101010101010101010101101010101001010101010101010101010101010010100010101001010010101010101010101010010101011101010101000101010100000000000000000000000000001010101010101010101010101010101010100 F
b1010101010101010101010101010101010110101010101010101010101010101010101010101010101010101101010101010101010 G
b10101101010101010101010101010101010100 H
b0 I
b10101010101010101010101010101010000000000000000000000000000010101 $
b100000000000000000000001010011000111 %
b111010101010101010101010101010101000000000000000000000010101010100010100 &
b1010101010101010101010101010101101111010101010101010101010101010101000000000000000000000010101010100010100 '
b0 +
b10101010101010100101010101101010101010101010101010101011010111010101101001010101010101010101011010101000101010101010101010 ,
b10101011010111010101101001010101010101010101011010101000101010101010101010 -
b101010101010101010101010101011010111010101101001010101010101010101011010101000101010101010101010 .
b101010101010101010101010101011100101010101011010101010101010101010010101010110101010101010101010101010101101011101010110100101010101010101010101101010100010101010101010101010101010101010101010101010101010000000000000000000000000000010101 /
b1010101010110101010101010101010100101010101101010101010101010101010101011010111010101101001010101010101010101011010101000101010101010101010 0
b10101010101010101010101010101110101010101010101010101010101010101 1
b10101010101010101010101010101011010101010100101010101010101010101101010101001010101010101010101010101010010100010101001010010101010101010101010010101011101010101000101010100000000000000000000000000001010101010101010101010101010101010100 2
b1010101010101010101010101010101010110101010101010101010101010101010101010101010101010101101010101010101010 3
#5
0!
1(
#10
b1 $
b1000000000000001000010000000101100111 %
b110000000000000000000000000000101010101010101010101010010101011111101011 &
b10101010101010101010101010101110010110000000000000000000000000000101010101010101010101010010101011111101011 '
b1 +
b1010000000000101000000000000000000000000000000000000000000000000000 ,
b1010000000000101000000000000000000000000000000000000000000000000000 -
b1010000000000101000000000000000000000000000000000000000000000000000 .
b1001100011101000000000000000000000000000000000000000000000000000000000000000101000000000010100000000000000000000000000000000000000000000000000000000000000000000000000000000000000000000000000000000000000000001 /
b11000111010000000000000000000000000000000000000000000000000000000000000001010000000000101000000000000000000000000000000000000000000000000000 0
b100000000000000000000001010011000111 1
b101010101010101010101010101011100101010101011010101010101010101010010101010110101010101010101010101010101101011101010110100101010101010101010101101010100010101010101010101010101010101010101010101010101010000000000000000000000000000010101 2
b1010101010101010101010101010101101111010101010101010101010101010101000000000000000000000010101010100010100 3
1!
b100000000000000000000001010011000111 C
b100 D
b10101010101010101010010101100010 E
b101010101010101010101010101011100101010101011010101010101010101010010101010110101010101010101010101010101101011101010110100101010101010101010101101010100010101010101010101010101010101010101010101010101010000000000000000000000000000010101 F
b1010101010101010101010101010101101111010101010101010101010101010101000000000000000000000010101010100010100 G
b10101010101010101010101010101010101010 H
b1 I
#15
0!
#20
b1000000000000000000000000000000010 $
b11100000000000001000010000000101100111 %
b110000000000000000000000000000000000000000000000000000000000010100101001 &
b100000110000000000000000000000000000000000000000000000000000000000010100101001 '
b10 +
b10000000000010000000000000000000000000000000100000000000101000000000000000000000010000100000000100010000000000000000001 ,
b101000000000000000000000010000100000000100010000000000000000001 -
b100000000000101000000000000000000000010000100000000100010000000000000000001 .
b10000110011000010000100001000000000001000000000000000000000000000000010000000000010100000000000000000000001000010000000010001000000000000000000100000000000000000000000000000001000000000000000000000000000000010 /
b1100110000100001000010000000000010000000000000000000000000000000100000000000101000000000000000000000010000100000000100010000000000000000001 0
b1000000000000001000010000000101100111 1
b1001100011101000000000000000000000000000000000000000000000000000000000000000101000000000010100000000000000000000000000000000000000000000000000000000000000000000000000000000000000000000000000000000000000000001 2
b10101010101010101010101010101110010110000000000000000000000000000101010101010101010101010010101011111101011 3
1!
b1000000000000001000010000000101100111 C
b1000 D
b100000000000000000000000000011000 E
b1001100011101000000000000000000000000000000000000000000000000000000000000000101000000000010100000000000000000000000000000000000000000000000000000000000000000000000000000000000000000000000000000000000000000001 F
b10101010101010101010101010101110010110000000000000000000000000000101010101010101010101010010101011111101011 G
b1010101010101010101010101010101010100 H
b10 I
#25
0!
#30
b1000000000000000000000000000000011 $
b100000000000000010000100000001001100111 %
b1000000000000000000000000000000010000010 &
b1000000000000000000000000000000000000001000000000000000000000000000000010000010 '
b11 +
b111000110011000010000100001000000000001000000000000000000000000000000010000000000010100000000000000000000001000010000000010001000000000000000000100000000000000000000000000000001000000000000000000000000000000011 /
b11100000000000001000010000000101100111 1
b10000110011000010000100001000000000001000000000000000000000000000000010000000000010100000000000000000000001000010000000010001000000000000000000100000000000000000000000000000001000000000000000000000000000000010 2
b100000110000000000000000000000000000000000000000000000000000000000010100101001 3
1!
b11100000000000001000010000000101100111 C
b11100 D
b100000001000 E
b10000110011000010000100001000000000001000000000000000000000000000000010000000000010100000000000000000000001000010000000010001000000000000000000100000000000000000000000000000001000000000000000000000000000000010 F
b100000110000000000000000000000000000000000000000000000000000000000010100101001 G
b10101000000000000000000000000000010101 H
b11 I
#35
0!
#40
b10000000000000000000000000000000101 $
b100100101010101010101010101010101010101 %
b1000000000000000000000000000000010000011 &
b11100000000000000000000000000000000000001000000000000000000000000000000010000011 '
b100 +
b100000000000100000000000000000000000000000001000000000001000000000000100000000000100001000000001000000000000001000000010 ,
b1000000000000100000000000100001000000001000000000000001000000010 -
b1000000000001000000000000100000000000100001000000001000000000000001000000010 .
b1000000110011000100001000010000000000010000000000000000000000000000000100000000000100000000000010000000000010000100000000100000000000000100000001000000000000000000000000000000010000000000000000000000000000000101 /
b1100110001000010000100000000000100000000000000000000000000000001000000000001000000000000100000000000100001000000001000000000000001000000010 0
b100000000000000010000100000001001100111 1
b111000110011000010000100001000000000001000000000000000000000000000000010000000000010100000000000000000000001000010000000010001000000000000000000100000000000000000000000000000001000000000000000000000000000000011 2
b1000000000000000000000000000000000000001000000000000000000000000000000010000010 3
1!
b100000000000000010000100000001001100111 C
b100000 D
b100000011100 E
b111000110011000010000100001000000000001000000000000000000000000000000010000000000010100000000000000000000001000010000000010001000000000000000000100000000000000000000000000000001000000000000000000000000000000011 F
b1000000000000000000000000000000000000001000000000000000000000000000000010000010 G
b10100000000000000000000000000000000001 H
b100 I
#45
0!
#50
b10101010101010101010101010101010000000000000000000000000000010101 $
b101000101010101010101010101010101010101 %
b10000000000000000000000000000000100000101 &
b100000000000000000000000000000000000000010000000000000000000000000000000100000101 '
b101 +
b10101010101010100101010101101010101010101010101010101011010111010101101001010101010101010101011010101000101010101010101010 ,
b10101011010111010101101001010101010101010101011010101000101010101010101010 -
b101010101010101010101010101011010111010101101001010101010101010101011010101000101010101010101010 .
b1001000101010101011010101010101010101010010101010110101010101010101010101010101101011101010110100101010101010101010101101010100010101010101010101010101010101010101010101010101010000000000000000000000000000010101 /
b1010101010110101010101010101010100101010101101010101010101010101010101011010111010101101001010101010101010101011010101000101010101010101010 0
b100100101010101010101010101010101010101 1
b1000000110011000100001000010000000000010000000000000000000000000000000100000000000100000000000010000000000010000100000000100000000000000100000001000000000000000000000000000000010000000000000000000000000000000101 2
b11100000000000000000000000000000000000001000000000000000000000000000000010000011 3
1!
b100100101010101010101010101010101010101 C
b100100 D
b100010 E
b1000000110011000100001000010000000000010000000000000000000000000000000100000000000100000000000010000000000010000100000000100000000000000100000001000000000000000000000000000000010000000000000000000000000000000101 F
b11100000000000000000000000000000000000001000000000000000000000000000000010000011 G
b1000000000000000000000000000000100 H
b101 I
#55
0!
#60
b101100101010101010101010101010101010101 %
b110000000000000000000000000000101010101010101010101010010101011111101011 &
b100100010110000000000000000000000000000101010101010101010101010010101011111101011 '
b110 +
b1010000101010101011010101010101010101010010101010110101010101010101010101010101101011101010110100101010101010101010101101010100010101010101010101010101010101010101010101010101010000000000000000000000000000010101 /
b101000101010101010101010101010101010101 1
b1001000101010101011010101010101010101010010101010110101010101010101010101010101101011101010110100101010101010101010101101010100010101010101010101010101010101010101010101010101010000000000000000000000000000010101 2
b100000000000000000000000000000000000000010000000000000000000000000000000100000101 3
1!
b101000101010101010101010101010101010101 C
b101000 D
b11111111111111111111101011011000 E
b1001000101010101011010101010101010101010010101010110101010101010101010101010101101011101010110100101010101010101010101101010100010101010101010101010101010101010101010101010101010000000000000000000000000000010101 F
b100000000000000000000000000000000000000010000000000000000000000000000000100000101 G
b100001000000000000000000000000000000101 H
b110 I
#65
0!
#70
b110000101010101010101010101010101010101 %
b101000010110000000000000000000000000000101010101010101010101010010101011111101011 '
b111 +
b1011000101010101011010101010101010101010010101010110101010101010101010101010101101011101010110100101010101010101010101101010100010101010101010101010101010101010101010101010101010000000000000000000000000000010101 /
b101100101010101010101010101010101010101 1
b1010000101010101011010101010101010101010010101010110101010101010101010101010101101011101010110100101010101010101010101101010100010101010101010101010101010101010101010101010101010000000000000000000000000000010101 2
b100100010110000000000000000000000000000101010101010101010101010010101011111101011 3
1!
b101100101010101010101010101010101010101 C
b101100 D
b11111111111111111111101011011100 E
b1010000101010101011010101010101010101010010101010110101010101010101010101010101101011101010110100101010101010101010101101010100010101010101010101010101010101010101010101010101010000000000000000000000000000010101 F
b100100010110000000000000000000000000000101010101010101010101010010101011111101011 G
b100010000000000000000000000000000001001 H
b111 I
#75
0!
#80
b110100101010101010101010101010101010101 %
b101100010110000000000000000000000000000101010101010101010101010010101011111101011 '
b1000 +
b1100000101010101011010101010101010101010010101010110101010101010101010101010101101011101010110100101010101010101010101101010100010101010101010101010101010101010101010101010101010000000000000000000000000000010101 /
b110000101010101010101010101010101010101 1
b1011000101010101011010101010101010101010010101010110101010101010101010101010101101011101010110100101010101010101010101101010100010101010101010101010101010101010101010101010101010000000000000000000000000000010101 2
b101000010110000000000000000000000000000101010101010101010101010010101011111101011 3
1!
b110000101010101010101010101010101010101 C
b110000 D
b11111111111111111111101011100000 E
b1011000101010101011010101010101010101010010101010110101010101010101010101010101101011101010110100101010101010101010101101010100010101010101010101010101010101010101010101010101010000000000000000000000000000010101 F
b101000010110000000000000000000000000000101010101010101010101010010101011111101011 G
b10101000000000000000000000000000010101 H
b1000 I
#85
0!
#90
b111000101010101010101010101010101010101 %
b110000010110000000000000000000000000000101010101010101010101010010101011111101011 '
b1001 +
b1101000101010101011010101010101010101010010101010110101010101010101010101010101101011101010110100101010101010101010101101010100010101010101010101010101010101010101010101010101010000000000000000000000000000010101 /
b110100101010101010101010101010101010101 1
b1100000101010101011010101010101010101010010101010110101010101010101010101010101101011101010110100101010101010101010101101010100010101010101010101010101010101010101010101010101010000000000000000000000000000010101 2
b101100010110000000000000000000000000000101010101010101010101010010101011111101011 3
1!
b110100101010101010101010101010101010101 C
b110100 D
b11111111111111111111101011100100 E
b1100000101010101011010101010101010101010010101010110101010101010101010101010101101011101010110100101010101010101010101101010100010101010101010101010101010101010101010101010101010000000000000000000000000000010101 F
b101100010110000000000000000000000000000101010101010101010101010010101011111101011 G
b1001 I
#95
0!
#100
b111100101010101010101010101010101010101 %
b110100010110000000000000000000000000000101010101010101010101010010101011111101011 '
b1010 +
b1110000101010101011010101010101010101010010101010110101010101010101010101010101101011101010110100101010101010101010101101010100010101010101010101010101010101010101010101010101010000000000000000000000000000010101 /
b111000101010101010101010101010101010101 1
b1101000101010101011010101010101010101010010101010110101010101010101010101010101101011101010110100101010101010101010101101010100010101010101010101010101010101010101010101010101010000000000000000000000000000010101 2
b110000010110000000000000000000000000000101010101010101010101010010101011111101011 3
1!
b111000101010101010101010101010101010101 C
b111000 D
b11111111111111111111101011101000 E
b1101000101010101011010101010101010101010010101010110101010101010101010101010101101011101010110100101010101010101010101101010100010101010101010101010101010101010101010101010101010000000000000000000000000000010101 F
b110000010110000000000000000000000000000101010101010101010101010010101011111101011 G
b1010 I
#105
0!
#110
b1000000101010101010101010101010101010101 %
b111000010110000000000000000000000000000101010101010101010101010010101011111101011 '
b1011 +
b1111000101010101011010101010101010101010010101010110101010101010101010101010101101011101010110100101010101010101010101101010100010101010101010101010101010101010101010101010101010000000000000000000000000000010101 /
b111100101010101010101010101010101010101 1
b1110000101010101011010101010101010101010010101010110101010101010101010101010101101011101010110100101010101010101010101101010100010101010101010101010101010101010101010101010101010000000000000000000000000000010101 2
b110100010110000000000000000000000000000101010101010101010101010010101011111101011 3
1!
b111100101010101010101010101010101010101 C
b111100 D
b11111111111111111111101011101100 E
b1110000101010101011010101010101010101010010101010110101010101010101010101010101101011101010110100101010101010101010101101010100010101010101010101010101010101010101010101010101010000000000000000000000000000010101 F
b110100010110000000000000000000000000000101010101010101010101010010101011111101011 G
b1011 I
#115
0!
#120
b1000100101010101010101010101010101010101 %
b111100010110000000000000000000000000000101010101010101010101010010101011111101011 '
b1100 +
b10000000101010101011010101010101010101010010101010110101010101010101010101010101101011101010110100101010101010101010101101010100010101010101010101010101010101010101010101010101010000000000000000000000000000010101 /
b1000000101010101010101010101010101010101 1
b1111000101010101011010101010101010101010010101010110101010101010101010101010101101011101010110100101010101010101010101101010100010101010101010101010101010101010101010101010101010000000000000000000000000000010101 2
b111000010110000000000000000000000000000101010101010101010101010010101011111101011 3
1!
b1000000101010101010101010101010101010101 C
b1000000 D
b11111111111111111111101011110000 E
b1111000101010101011010101010101010101010010101010110101010101010101010101010101101011101010110100101010101010101010101101010100010101010101010101010101010101010101010101010101010000000000000000000000000000010101 F
b111000010110000000000000000000000000000101010101010101010101010010101011111101011 G
b1100 I
#125
0!
#130
b1001000101010101010101010101010101010101 %
b1000000010110000000000000000000000000000101010101010101010101010010101011111101011 '
b1101 +
b10001000101010101011010101010101010101010010101010110101010101010101010101010101101011101010110100101010101010101010101101010100010101010101010101010101010101010101010101010101010000000000000000000000000000010101 /
b1000100101010101010101010101010101010101 1
b10000000101010101011010101010101010101010010101010110101010101010101010101010101101011101010110100101010101010101010101101010100010101010101010101010101010101010101010101010101010000000000000000000000000000010101 2
b111100010110000000000000000000000000000101010101010101010101010010101011111101011 3
1!
b1000100101010101010101010101010101010101 C
b1000100 D
b11111111111111111111101011110100 E
b10000000101010101011010101010101010101010010101010110101010101010101010101010101101011101010110100101010101010101010101101010100010101010101010101010101010101010101010101010101010000000000000000000000000000010101 F
b111100010110000000000000000000000000000101010101010101010101010010101011111101011 G
b1101 I
#135
0!
#140
b1001100101010101010101010101010101010101 %
b1000100010110000000000000000000000000000101010101010101010101010010101011111101011 '
b1110 +
b10010000101010101011010101010101010101010010101010110101010101010101010101010101101011101010110100101010101010101010101101010100010101010101010101010101010101010101010101010101010000000000000000000000000000010101 /
b1001000101010101010101010101010101010101 1
b10001000101010101011010101010101010101010010101010110101010101010101010101010101101011101010110100101010101010101010101101010100010101010101010101010101010101010101010101010101010000000000000000000000000000010101 2
b1000000010110000000000000000000000000000101010101010101010101010010101011111101011 3
1!
b1001000101010101010101010101010101010101 C
b1001000 D
b11111111111111111111101011111000 E
b10001000101010101011010101010101010101010010101010110101010101010101010101010101101011101010110100101010101010101010101101010100010101010101010101010101010101010101010101010101010000000000000000000000000000010101 F
b1000000010110000000000000000000000000000101010101010101010101010010101011111101011 G
b1110 I
#145
0!
#150
b1010000101010101010101010101010101010101 %
b1001000010110000000000000000000000000000101010101010101010101010010101011111101011 '
b1111 +
b10011000101010101011010101010101010101010010101010110101010101010101010101010101101011101010110100101010101010101010101101010100010101010101010101010101010101010101010101010101010000000000000000000000000000010101 /
b1001100101010101010101010101010101010101 1
b10010000101010101011010101010101010101010010101010110101010101010101010101010101101011101010110100101010101010101010101101010100010101010101010101010101010101010101010101010101010000000000000000000000000000010101 2
b1000100010110000000000000000000000000000101010101010101010101010010101011111101011 3
1!
b1001100101010101010101010101010101010101 C
b1001100 D
b11111111111111111111101011111100 E
b10010000101010101011010101010101010101010010101010110101010101010101010101010101101011101010110100101010101010101010101101010100010101010101010101010101010101010101010101010101010000000000000000000000000000010101 F
b1000100010110000000000000000000000000000101010101010101010101010010101011111101011 G
b1111 I
#155
0!
#160
b1010100101010101010101010101010101010101 %
b1001100010110000000000000000000000000000101010101010101010101010010101011111101011 '
b10000 +
b10100000101010101011010101010101010101010010101010110101010101010101010101010101101011101010110100101010101010101010101101010100010101010101010101010101010101010101010101010101010000000000000000000000000000010101 /
b1010000101010101010101010101010101010101 1
b10011000101010101011010101010101010101010010101010110101010101010101010101010101101011101010110100101010101010101010101101010100010101010101010101010101010101010101010101010101010000000000000000000000000000010101 2
b1001000010110000000000000000000000000000101010101010101010101010010101011111101011 3
1!
b1010000101010101010101010101010101010101 C
b1010000 D
b11111111111111111111101100000000 E
b10011000101010101011010101010101010101010010101010110101010101010101010101010101101011101010110100101010101010101010101101010100010101010101010101010101010101010101010101010101010000000000000000000000000000010101 F
b1001000010110000000000000000000000000000101010101010101010101010010101011111101011 G
b10000 I
#165
0!
#170
b1011000101010101010101010101010101010101 %
b1010000010110000000000000000000000000000101010101010101010101010010101011111101011 '
b10001 +
b10101000101010101011010101010101010101010010101010110101010101010101010101010101101011101010110100101010101010101010101101010100010101010101010101010101010101010101010101010101010000000000000000000000000000010101 /
b1010100101010101010101010101010101010101 1
b10100000101010101011010101010101010101010010101010110101010101010101010101010101101011101010110100101010101010101010101101010100010101010101010101010101010101010101010101010101010000000000000000000000000000010101 2
b1001100010110000000000000000000000000000101010101010101010101010010101011111101011 3
1!
b1010100101010101010101010101010101010101 C
b1010100 D
b11111111111111111111101100000100 E
b10100000101010101011010101010101010101010010101010110101010101010101010101010101101011101010110100101010101010101010101101010100010101010101010101010101010101010101010101010101010000000000000000000000000000010101 F
b1001100010110000000000000000000000000000101010101010101010101010010101011111101011 G
b10001 I
#175
0!
#180
b1011100101010101010101010101010101010101 %
b1010100010110000000000000000000000000000101010101010101010101010010101011111101011 '
b10010 +
b10110000101010101011010101010101010101010010101010110101010101010101010101010101101011101010110100101010101010101010101101010100010101010101010101010101010101010101010101010101010000000000000000000000000000010101 /
b1011000101010101010101010101010101010101 1
b10101000101010101011010101010101010101010010101010110101010101010101010101010101101011101010110100101010101010101010101101010100010101010101010101010101010101010101010101010101010000000000000000000000000000010101 2
b1010000010110000000000000000000000000000101010101010101010101010010101011111101011 3
1!
b1011000101010101010101010101010101010101 C
b1011000 D
b11111111111111111111101100001000 E
b10101000101010101011010101010101010101010010101010110101010101010101010101010101101011101010110100101010101010101010101101010100010101010101010101010101010101010101010101010101010000000000000000000000000000010101 F
b1010000010110000000000000000000000000000101010101010101010101010010101011111101011 G
b10010 I
#185
0!
#190
b1100000101010101010101010101010101010101 %
b1011000010110000000000000000000000000000101010101010101010101010010101011111101011 '
b10011 +
b10111000101010101011010101010101010101010010101010110101010101010101010101010101101011101010110100101010101010101010101101010100010101010101010101010101010101010101010101010101010000000000000000000000000000010101 /
b1011100101010101010101010101010101010101 1
b10110000101010101011010101010101010101010010101010110101010101010101010101010101101011101010110100101010101010101010101101010100010101010101010101010101010101010101010101010101010000000000000000000000000000010101 2
b1010100010110000000000000000000000000000101010101010101010101010010101011111101011 3
1!
b1011100101010101010101010101010101010101 C
b1011100 D
b11111111111111111111101100001100 E
b10110000101010101011010101010101010101010010101010110101010101010101010101010101101011101010110100101010101010101010101101010100010101010101010101010101010101010101010101010101010000000000000000000000000000010101 F
b1010100010110000000000000000000000000000101010101010101010101010010101011111101011 G
b10011 I
#195
0!
#200
b1100100101010101010101010101010101010101 %
b1011100010110000000000000000000000000000101010101010101010101010010101011111101011 '
b10100 +
b11000000101010101011010101010101010101010010101010110101010101010101010101010101101011101010110100101010101010101010101101010100010101010101010101010101010101010101010101010101010000000000000000000000000000010101 /
b1100000101010101010101010101010101010101 1
b10111000101010101011010101010101010101010010101010110101010101010101010101010101101011101010110100101010101010101010101101010100010101010101010101010101010101010101010101010101010000000000000000000000000000010101 2
b1011000010110000000000000000000000000000101010101010101010101010010101011111101011 3
1!
b1100000101010101010101010101010101010101 C
b1100000 D
b11111111111111111111101100010000 E
b10111000101010101011010101010101010101010010101010110101010101010101010101010101101011101010110100101010101010101010101101010100010101010101010101010101010101010101010101010101010000000000000000000000000000010101 F
b1011000010110000000000000000000000000000101010101010101010101010010101011111101011 G
b10100 I
#205
0!
#210
b1101000101010101010101010101010101010101 %
b1100000010110000000000000000000000000000101010101010101010101010010101011111101011 '
b10101 +
b11001000101010101011010101010101010101010010101010110101010101010101010101010101101011101010110100101010101010101010101101010100010101010101010101010101010101010101010101010101010000000000000000000000000000010101 /
b1100100101010101010101010101010101010101 1
b11000000101010101011010101010101010101010010101010110101010101010101010101010101101011101010110100101010101010101010101101010100010101010101010101010101010101010101010101010101010000000000000000000000000000010101 2
b1011100010110000000000000000000000000000101010101010101010101010010101011111101011 3
1!
b1100100101010101010101010101010101010101 C
b1100100 D
b11111111111111111111101100010100 E
b11000000101010101011010101010101010101010010101010110101010101010101010101010101101011101010110100101010101010101010101101010100010101010101010101010101010101010101010101010101010000000000000000000000000000010101 F
b1011100010110000000000000000000000000000101010101010101010101010010101011111101011 G
b10101 I
#215
0!
#220
b1101100101010101010101010101010101010101 %
b1100100010110000000000000000000000000000101010101010101010101010010101011111101011 '
b10110 +
b11010000101010101011010101010101010101010010101010110101010101010101010101010101101011101010110100101010101010101010101101010100010101010101010101010101010101010101010101010101010000000000000000000000000000010101 /
b1101000101010101010101010101010101010101 1
b11001000101010101011010101010101010101010010101010110101010101010101010101010101101011101010110100101010101010101010101101010100010101010101010101010101010101010101010101010101010000000000000000000000000000010101 2
b1100000010110000000000000000000000000000101010101010101010101010010101011111101011 3
1!
b1101000101010101010101010101010101010101 C
b1101000 D
b11111111111111111111101100011000 E
b11001000101010101011010101010101010101010010101010110101010101010101010101010101101011101010110100101010101010101010101101010100010101010101010101010101010101010101010101010101010000000000000000000000000000010101 F
b1100000010110000000000000000000000000000101010101010101010101010010101011111101011 G
b10110 I
#225
0!
#230
b1110000101010101010101010101010101010101 %
b1101000010110000000000000000000000000000101010101010101010101010010101011111101011 '
b10111 +
b11011000101010101011010101010101010101010010101010110101010101010101010101010101101011101010110100101010101010101010101101010100010101010101010101010101010101010101010101010101010000000000000000000000000000010101 /
b1101100101010101010101010101010101010101 1
b11010000101010101011010101010101010101010010101010110101010101010101010101010101101011101010110100101010101010101010101101010100010101010101010101010101010101010101010101010101010000000000000000000000000000010101 2
b1100100010110000000000000000000000000000101010101010101010101010010101011111101011 3
1!
b1101100101010101010101010101010101010101 C
b1101100 D
b11111111111111111111101100011100 E
b11010000101010101011010101010101010101010010101010110101010101010101010101010101101011101010110100101010101010101010101101010100010101010101010101010101010101010101010101010101010000000000000000000000000000010101 F
b1100100010110000000000000000000000000000101010101010101010101010010101011111101011 G
b10111 I
#235
0!
#240
b1110100101010101010101010101010101010101 %
b1101100010110000000000000000000000000000101010101010101010101010010101011111101011 '
b11000 +
b11100000101010101011010101010101010101010010101010110101010101010101010101010101101011101010110100101010101010101010101101010100010101010101010101010101010101010101010101010101010000000000000000000000000000010101 /
b1110000101010101010101010101010101010101 1
b11011000101010101011010101010101010101010010101010110101010101010101010101010101101011101010110100101010101010101010101101010100010101010101010101010101010101010101010101010101010000000000000000000000000000010101 2
b1101000010110000000000000000000000000000101010101010101010101010010101011111101011 3
1!
b1110000101010101010101010101010101010101 C
b1110000 D
b11111111111111111111101100100000 E
b11011000101010101011010101010101010101010010101010110101010101010101010101010101101011101010110100101010101010101010101101010100010101010101010101010101010101010101010101010101010000000000000000000000000000010101 F
b1101000010110000000000000000000000000000101010101010101010101010010101011111101011 G
b11000 I
#245
0!
#250
b1111000101010101010101010101010101010101 %
b1110000010110000000000000000000000000000101010101010101010101010010101011111101011 '
b11001 +
b11101000101010101011010101010101010101010010101010110101010101010101010101010101101011101010110100101010101010101010101101010100010101010101010101010101010101010101010101010101010000000000000000000000000000010101 /
b1110100101010101010101010101010101010101 1
b11100000101010101011010101010101010101010010101010110101010101010101010101010101101011101010110100101010101010101010101101010100010101010101010101010101010101010101010101010101010000000000000000000000000000010101 2
b1101100010110000000000000000000000000000101010101010101010101010010101011111101011 3
1!
b1110100101010101010101010101010101010101 C
b1110100 D
b11111111111111111111101100100100 E
b11100000101010101011010101010101010101010010101010110101010101010101010101010101101011101010110100101010101010101010101101010100010101010101010101010101010101010101010101010101010000000000000000000000000000010101 F
b1101100010110000000000000000000000000000101010101010101010101010010101011111101011 G
b11001 I
#255
0!
#260
b1111100101010101010101010101010101010101 %
b1110100010110000000000000000000000000000101010101010101010101010010101011111101011 '
b11010 +
b11110000101010101011010101010101010101010010101010110101010101010101010101010101101011101010110100101010101010101010101101010100010101010101010101010101010101010101010101010101010000000000000000000000000000010101 /
b1111000101010101010101010101010101010101 1
b11101000101010101011010101010101010101010010101010110101010101010101010101010101101011101010110100101010101010101010101101010100010101010101010101010101010101010101010101010101010000000000000000000000000000010101 2
b1110000010110000000000000000000000000000101010101010101010101010010101011111101011 3
1!
b1111000101010101010101010101010101010101 C
b1111000 D
b11111111111111111111101100101000 E
b11101000101010101011010101010101010101010010101010110101010101010101010101010101101011101010110100101010101010101010101101010100010101010101010101010101010101010101010101010101010000000000000000000000000000010101 F
b1110000010110000000000000000000000000000101010101010101010101010010101011111101011 G
b11010 I
#265
0!
#270
b10000000101010101010101010101010101010101 %
b1111000010110000000000000000000000000000101010101010101010101010010101011111101011 '
b11011 +
b11111000101010101011010101010101010101010010101010110101010101010101010101010101101011101010110100101010101010101010101101010100010101010101010101010101010101010101010101010101010000000000000000000000000000010101 /
b1111100101010101010101010101010101010101 1
b11110000101010101011010101010101010101010010101010110101010101010101010101010101101011101010110100101010101010101010101101010100010101010101010101010101010101010101010101010101010000000000000000000000000000010101 2
b1110100010110000000000000000000000000000101010101010101010101010010101011111101011 3
1!
b1111100101010101010101010101010101010101 C
b1111100 D
b11111111111111111111101100101100 E
b11110000101010101011010101010101010101010010101010110101010101010101010101010101101011101010110100101010101010101010101101010100010101010101010101010101010101010101010101010101010000000000000000000000000000010101 F
b1110100010110000000000000000000000000000101010101010101010101010010101011111101011 G
b11011 I
#275
0!
#280
b10000100101010101010101010101010101010101 %
b1111100010110000000000000000000000000000101010101010101010101010010101011111101011 '
b11100 +
b100000000101010101011010101010101010101010010101010110101010101010101010101010101101011101010110100101010101010101010101101010100010101010101010101010101010101010101010101010101010000000000000000000000000000010101 /
b10000000101010101010101010101010101010101 1
b11111000101010101011010101010101010101010010101010110101010101010101010101010101101011101010110100101010101010101010101101010100010101010101010101010101010101010101010101010101010000000000000000000000000000010101 2
b1111000010110000000000000000000000000000101010101010101010101010010101011111101011 3
1!
b10000000101010101010101010101010101010101 C
b10000000 D
b11111111111111111111101100110000 E
b11111000101010101011010101010101010101010010101010110101010101010101010101010101101011101010110100101010101010101010101101010100010101010101010101010101010101010101010101010101010000000000000000000000000000010101 F
b1111000010110000000000000000000000000000101010101010101010101010010101011111101011 G
b11100 I
#285
0!
