dump.vcd
$date
	Thu May  7 13:38:41 2020
$end
$version
	Bluespec VCD dumper 2.1
$end
$timescale
	1 us
$end
$scope module main $end
$scope module top $end
$var reg 1 ! CLK $end
$var reg 1 ! CLK $end
$var reg 1 " CAN_FIRE_RL_show $end
$var reg 1 # RST_N $end
$var reg 1 $ WILL_FIRE_RL_show $end
$var reg 32 % b__h136 $end
$var reg 32 ' c $end
$scope module dut0 $end
$var reg 1 ! CLK $end
$var reg 1 ( CAN_FIRE_RL_rl_reset_loop $end
$var reg 1 ) CAN_FIRE_RL_rl_reset_start $end
$var reg 1 * CAN_FIRE_read_rs1 $end
$var reg 1 + CAN_FIRE_read_rs2 $end
$var reg 1 , CAN_FIRE_write_rd $end
$var reg 1 - RST_N $end
$var reg 1 . WILL_FIRE_RL_rl_reset_loop $end
$var reg 1 / WILL_FIRE_RL_rl_reset_start $end
$var reg 1 0 WILL_FIRE_write_rd $end
$var reg 1 1 EN_write_rd $end
$var reg 1 2 RDY_read_rs1 $end
$var reg 1 3 RDY_read_rs2 $end
$var reg 1 4 RDY_write_rd $end
$var reg 32 5 read_rs1 $end
$var reg 5 6 read_rs1_rs1 $end
$var reg 32 7 read_rs2 $end
$var reg 5 8 read_rs2_rs2 $end
$var reg 5 9 write_rd_rd $end
$var reg 32 : write_rd_rd_val $end
$var reg 5 > rg_j $end
$var reg 2 ? rg_state $end
$upscope $end
$upscope $end
$upscope $end
$enddefinitions $end
1!
1"
0#
1$
b10101010101010101010101010101010 %
b0 '
0(
0)
1*
1+
1,
0-
0.
0/
00
01
02
03
04
b10101010101010101010101010101010 5
b1 6
b10101010101010101010101010101010 7
b10 8
b0 9
b0 :
b1010 >
b0 ?
b0 %
1)
1/
#5
0!
1#
1-
#10
b1 %
1(
0)
1.
0/
1!
b1 '
b1 >
b1 ?
#15
0!
#20
b10 %
b0 5
1!
b10 '
b10 >
#25
0!
#30
b11 %
b0 7
1!
b11 '
b11 >
#35
0!
#40
b100 %
1!
b100 '
b100 >
#45
0!
#50
b101 %
1!
b101 '
b101 >
#55
0!
#60
b110 %
1!
b110 '
b110 >
#65
0!
#70
b111 %
1!
b111 '
b111 >
#75
0!
#80
b1000 %
1!
b1000 '
b1000 >
#85
0!
#90
b1001 %
1!
b1001 '
b1001 >
#95
0!
#100
b1010 %
1!
b1010 '
b1010 >
#105
0!
#110
b1011 %
1!
b1011 '
b1011 >
#115
0!
#120
b1100 %
1!
b1100 '
b1100 >
#125
0!
#130
b1101 %
1!
b1101 '
b1101 >
#135
0!
#140
b1110 %
1!
b1110 '
b1110 >
#145
0!
#150
b1111 %
1!
b1111 '
b1111 >
#155
0!
#160
b10000 %
1!
b10000 '
b10000 >
#165
0!
#170
b10001 %
1!
b10001 '
b10001 >
#175
0!
#180
b10010 %
1!
b10010 '
b10010 >
#185
0!
#190
b10011 %
1!
b10011 '
b10011 >
#195
0!
#200
b10100 %
1!
b10100 '
b10100 >
#205
0!
#210
b10101 %
1!
b10101 '
b10101 >
#215
0!
#220
b10110 %
1!
b10110 '
b10110 >
#225
0!
#230
b10111 %
1!
b10111 '
b10111 >
#235
0!
#240
b11000 %
1!
b11000 '
b11000 >
#245
0!
#250
b11001 %
1!
b11001 '
b11001 >
#255
0!
#260
b11010 %
1!
b11010 '
b11010 >
#265
0!
#270
b11011 %
1!
b11011 '
b11011 >
#275
0!
#280
b11100 %
1!
b11100 '
b11100 >
#285
0!
#290
b11101 %
1!
b11101 '
b11101 >
#295
0!
#300
b11110 %
1!
b11110 '
b11110 >
#305
0!
#310
b11111 %
1!
b11111 '
b11111 >
#315
0!
#320
b100000 %
0(
0.
1!
b100000 '
b0 >
b10 ?
#325
0!
#330
b100001 %
1!
b100001 '
#335
0!
#340
b100010 %
1!
b100010 '
#345
0!
#350
b100011 %
1!
b100011 '
#355
0!
#360
b100100 %
1!
b100100 '
#365
0!
#370
b100101 %
1!
b100101 '
#375
0!
#380
b100110 %
1!
b100110 '
#385
0!
#390
b100111 %
1!
b100111 '
#395
0!
#400
b101000 %
1!
b101000 '
#405
0!
#410
b101001 %
1!
b101001 '
#415
0!
#420
b101010 %
1!
b101010 '
#425
0!
#430
b101011 %
1!
b101011 '
#435
0!
#440
b101100 %
1!
b101100 '
#445
0!
#450
b101101 %
1!
b101101 '
#455
0!
#460
b101110 %
1!
b101110 '
#465
0!
#470
b101111 %
1!
b101111 '
#475
0!
#480
b110000 %
1!
b110000 '
#485
0!
#490
b110001 %
1!
b110001 '
#495
0!
#500
0"
0$
b110010 %
1!
b110010 '
