dump.vcd
$date
	Sun May 24 15:06:46 2020
$end
$version
	Bluespec VCD dumper 2.1
$end
$timescale
	1 us
$end
$scope module main $end
$scope module top $end
$var reg 1 ! CLK $end
$var reg 1 ! CLK $end
$var reg 1 " CAN_FIRE_RL_done $end
$var reg 1 # CAN_FIRE_RL_pipe $end
$var reg 65 $ IF_s1_reg_if_id_8_BITS_20_TO_16_3_EQ_0_4_THEN__ETC___d92 $end
$var reg 65 % IF_s2_reg_branch_BIT_32_THEN_s2_reg_branch_BIT_ETC___d17 $end
$var reg 72 & IF_s2_reg_id_ex_4_BITS_204_TO_198_14_EQ_0b1101_ETC___d240 $end
$var reg 107 ' IF_s2_reg_id_ex_4_BITS_204_TO_198_14_EQ_0b1101_ETC___d241 $end
$var reg 1 ( RST_N $end
$var reg 1 ) WILL_FIRE_RL_done $end
$var reg 1 * WILL_FIRE_RL_pipe $end
$var reg 32 + b__h6287 $end
$var reg 123 , s1_reg_if_id_8_BITS_25_TO_21_0_CONCAT_s1_reg_i_ETC___d90 $end
$var reg 74 - s1_reg_if_id_8_BITS_32_TO_26_1_CONCAT_s1_reg_i_ETC___d88 $end
$var reg 96 . s1_reg_if_id_8_BITS_32_TO_26_1_CONCAT_s1_reg_i_ETC___d89 $end
$var reg 237 / s1_reg_if_id_8_BITS_64_TO_33_3_CONCAT_s1_reg_i_ETC___d93 $end
$var reg 140 0 s1_reg_if_id_8_BITS_7_TO_1_1_CONCAT_s1_reg_if__ETC___d91 $end
$var reg 65 1 s1_reg_if_id___d18 $end
$var reg 237 2 s2_reg_id_ex___d94 $end
$var reg 107 3 s3_reg_ex_mem___d249 $end
$var reg 1 D regfile_flag $end
$var reg 65 E s1_reg_if_id $end
$var reg 32 F s1_reg_pc $end
$var reg 33 G s2_reg_branch $end
$var reg 237 H s2_reg_id_ex $end
$var reg 107 I s3_reg_ex_mem $end
$var reg 38 J s3_reg_forward_mem $end
$var reg 38 K s4_reg_forward_wb $end
$var reg 39 L s4_reg_mem_wb $end
$var reg 32 M step $end
$upscope $end
$upscope $end
$enddefinitions $end
1!
0"
1#
b1010101010101010101010101010101010100 $
b10101010101010101010101010101110101010101010101010101010101010101 %
b101010101010101010101010101010110101010101010101010111111111111101010 &
b1010101010101010101010101010101010000101010101010101010101010101010110101010101010101010111111111111101010 '
0(
0)
1*
b10101010101010101010101010101010 +
b101010101010101011010101010010101010101010101010101010100101000101010010100101010101010101010100101010111010101010001010101 ,
b1010100101000101010010100101010101010101010100101010111010101010001010101 -
b10101010101010101010101010100101000101010010100101010101010101010100101010111010101010001010101 .
b10101010101010101010101010101011010101010100101010101010101010101101010101001010101010101010101010101010010100010101001010010101010101010101010010101011101010101000101010100000000000000000000000000001010101010101010101010101010101010100 /
b10101010101001010101010101010101011010101010010101010101010101010101010100101000101010010100101010101010101010100101010111010101010001010101 0
b1010101010101010101010101010101010101010101010101010101010101010 1
b10101010101010101010101010101010101010101010101010101010101010101010101010101010101010101010101010101010101010101010101010101010101010101010101010101010101010101010101010101010101010101010101010101010101010101010101010101010101010101010 2
b1010101010101010101010101010101010101010101010101010101010101010101010101010101010101010101010101010101010 3
0D
b10101010101010101010101010101110101010101010101010101010101010101 E
b0 F
b1010101010101010101101010101010 G
b10101010101010101010101010101011010101010100101010101010101010101101010101001010101010101010101010101010010100010101001010010101010101010101010010101011101010101000101010100000000000000000000000000001010101010101010101010101010101010100 H
b1010101010101010101010101010101010000101010101010101010101010101010110101010101010101010111111111111101010 I
b1010100000000000000000000000000000001 J
b1010110101010101010101010101010101010 K
b10101101010101010101010101010101010100 L
b0 M
b10101010101010101010101010101010000000000000000000000000000010101 $
b100000000000000000000000000101100111 %
b101010101010101010101010101010100000000000000000000010101010100010100 &
b1010101010101010101010101010101101000101010101010101010101010101010100000000000000000000010101010100010100 '
b0 +
b10101010101010100101010101101010101010101010101010101011010111010101101001010101010101010101011010101000101010101010101010 ,
b10101011010111010101101001010101010101010101011010101000101010101010101010 -
b101010101010101010101010101011010111010101101001010101010101010101011010101000101010101010101010 .
b101010101010101010101010101011100101010101011010101010101010101010010101010110101010101010101010101010101101011101010110100101010101010101010101101010100010101010101010101010101010101010101010101010101010000000000000000000000000000010101 /
b1010101010110101010101010101010100101010101101010101010101010101010101011010111010101101001010101010101010101011010101000101010101010101010 0
b10101010101010101010101010101110101010101010101010101010101010101 1
b10101010101010101010101010101011010101010100101010101010101010101101010101001010101010101010101010101010010100010101001010010101010101010101010010101011101010101000101010100000000000000000000000000001010101010101010101010101010101010100 2
b1010101010101010101010101010101010000101010101010101010101010101010110101010101010101010111111111111101010 3
#5
0!
1(
#10
b1 $
b1000000000000001000010000001001100111 %
b1010101010101010101010101010111010101010101010101010010101011111101011 &
b10101010101010101010101010101110010001010101010101010101010101010111010101010101010101010010101011111101011 '
b1 +
b101000000000000000000000000000000000000000000000000000000000000 ,
b101000000000000000000000000000000000000000000000000000000000000 -
b101000000000000000000000000000000000000000000000000000000000000 .
b1000110011000010000000000000000000000000000000000000000000000000000000000000000010100000000000000000000000000000000000000000000000000000000000000000000000000000000000000000000000000000000000000000000000000001 /
b1100110000100000000000000000000000000000000000000000000000000000000000000000101000000000000000000000000000000000000000000000000000000000000 0
b100000000000000000000000000101100111 1
b101010101010101010101010101011100101010101011010101010101010101010010101010110101010101010101010101010101101011101010110100101010101010101010101101010100010101010101010101010101010101010101010101010101010000000000000000000000000000010101 2
b1010101010101010101010101010101101000101010101010101010101010101010100000000000000000000010101010100010100 3
1!
b100000000000000000000000000101100111 E
b100 F
b10101010101010101010010101011000 G
b101010101010101010101010101011100101010101011010101010101010101010010101010110101010101010101010101010101101011101010110100101010101010101010101101010100010101010101010101010101010101010101010101010101010000000000000000000000000000010101 H
b1010101010101010101010101010101101000101010101010101010101010101010100000000000000000000010101010100010100 I
b101000000000000000000000000000000000 J
b1010101010101010101010101010101010101 K
b10101010101010101010101010101010101010 L
b1 M
#15
0!
#20
b1000000000000000000000000000000011 $
b1100000000000001000010000001101100111 %
b1000011 &
b100000000000000000000000000000000000000000000000000000000000000000000001000011 '
b10 +
b10000000000010000000000000000000000000000000100000000001000000000000100000000000010000100000000100010000000000000000001 ,
b1000000000000100000000000010000100000000100010000000000000000001 -
b100000000001000000000000100000000000010000100000000100010000000000000000001 .
b10000110011000100000100001000000000001000000000000000000000000000000010000000000100000000000010000000000001000010000000010001000000000000000000100000000000000000000000000000001000000000000000000000000000000011 /
b1100110001000001000010000000000010000000000000000000000000000000100000000001000000000000100000000000010000100000000100010000000000000000001 0
b1000000000000001000010000001001100111 1
b1000110011000010000000000000000000000000000000000000000000000000000000000000000010100000000000000000000000000000000000000000000000000000000000000000000000000000000000000000000000000000000000000000000000000001 2
b10101010101010101010101010101110010001010101010101010101010101010111010101010101010101010010101011111101011 3
1!
b1000000000000001000010000001001100111 E
b1000 F
b100 G
b1000110011000010000000000000000000000000000000000000000000000000000000000000000010100000000000000000000000000000000000000000000000000000000000000000000000000000000000000000000000000000000000000000000000000001 H
b10101010101010101010101010101110010001010101010101010101010101010111010101010101010101010010101011111101011 I
b1010100000000000000000000000000000001 J
b101001010101010101010101010101010101 K
b1010010101010101010101010101010101010 L
b10 M
#25
0!
#30
b10000101010101010101010101010101010101 %
b10000101 &
b1000000000000000000000000000000000000000000000000000000000000000000000010000101 '
b11 +
b10000000000010000000000000000000000000000000100000000001101000000000100000000000010000100000000100010000000000000000001 ,
b1101000000000100000000000010000100000000100010000000000000000001 -
b100000000001101000000000100000000000010000100000000100010000000000000000001 .
b11000110011000110000100001000000000001000000000000000000000000000000010000000000110100000000010000000000001000010000000010001000000000000000000100000000000000000000000000000001000000000000000000000000000000011 /
b1100110001100001000010000000000010000000000000000000000000000000100000000001101000000000100000000000010000100000000100010000000000000000001 0
b1100000000000001000010000001101100111 1
b10000110011000100000100001000000000001000000000000000000000000000000010000000000100000000000010000000000001000010000000010001000000000000000000100000000000000000000000000000001000000000000000000000000000000011 2
b100000000000000000000000000000000000000000000000000000000000000000000001000011 3
1!
b1100000000000001000010000001101100111 E
b1100 F
b1001 G
b10000110011000100000100001000000000001000000000000000000000000000000010000000000100000000000010000000000001000010000000010001000000000000000000100000000000000000000000000000001000000000000000000000000000000011 H
b100000000000000000000000000000000000000000000000000000000000000000000001000011 I
b10000100000000000000000000000000000000 J
b11010110101010101010101010101010101110 K
b110101101010101010101010101010101011101 L
b11 M
#35
0!
#40
b10101010101010101010101010101110000000000000000000000000000010101 $
b10100101010101010101010101010101010101 %
b11000111 &
b1100000000000000000000000000000000000000000000000000000000000000000000011000111 '
b100 +
b10101010101010100101010101101010101010101010101010101011010111010101101001010101010101010101011010101000101010101010101010 ,
b10101011010111010101101001010101010101010101011010101000101010101010101010 -
b101010101010101010101010101011010111010101101001010101010101010101011010101000101010101010101010 .
b100000101010101011010101010101010101010010101010110101010101010101010101010101101011101010110100101010101010101010101101010100010101010101010101010101010101010101010101010101110000000000000000000000000000010101 /
b1010101010110101010101010101010100101010101101010101010101010101010101011010111010101101001010101010101010101011010101000101010101010101010 0
b10000101010101010101010101010101010101 1
b11000110011000110000100001000000000001000000000000000000000000000000010000000000110100000000010000000000001000010000000010001000000000000000000100000000000000000000000000000001000000000000000000000000000000011 2
b1000000000000000000000000000000000000000000000000000000000000000000000010000101 3
1!
b10000101010101010101010101010101010101 E
b10000 F
b1101 G
b11000110011000110000100001000000000001000000000000000000000000000000010000000000110100000000010000000000001000010000000010001000000000000000000100000000000000000000000000000001000000000000000000000000000000011 H
b1000000000000000000000000000000000000000000000000000000000000000000000010000101 I
b10001000000000000000000000000000000000 J
b10000100000000000000000000000000000000 K
b100001000000000000000000000000000000001 L
b100 M
#45
0!
#50
b11000101010101010101010101010101010101 %
b1000010101010101010101010010101100011101011 &
b10000010000000000000000000000000000001000010101010101010101010010101100011101011 '
b101 +
b101000101010101011010101010101010101010010101010110101010101010101010101010101101011101010110100101010101010101010101101010100010101010101010101010101010101010101010101010101110000000000000000000000000000010101 /
b10100101010101010101010101010101010101 1
b100000101010101011010101010101010101010010101010110101010101010101010101010101101011101010110100101010101010101010101101010100010101010101010101010101010101010101010101010101110000000000000000000000000000010101 2
b1100000000000000000000000000000000000000000000000000000000000000000000011000111 3
1!
b10100101010101010101010101010101010101 E
b10100 F
b11111111111111111111101010111010 G
b100000101010101011010101010101010101010010101010110101010101010101010101010101101011101010110100101010101010101010101101010100010101010101010101010101010101010101010101010101110000000000000000000000000000010101 H
b1100000000000000000000000000000000000000000000000000000000000000000000011000111 I
b10001100000000000000000000000000000000 J
b10001000000000000000000000000000000000 K
b100010000000000000000000000000000000001 L
b101 M
#55
0!
#60
b11100101010101010101010101010101010101 %
b1010010101010101010101010010101100011101011 &
b10100010000000000000000000000000000001010010101010101010101010010101100011101011 '
b110 +
b110000101010101011010101010101010101010010101010110101010101010101010101010101101011101010110100101010101010101010101101010100010101010101010101010101010101010101010101010101110000000000000000000000000000010101 /
b11000101010101010101010101010101010101 1
b101000101010101011010101010101010101010010101010110101010101010101010101010101101011101010110100101010101010101010101101010100010101010101010101010101010101010101010101010101110000000000000000000000000000010101 2
b10000010000000000000000000000000000001000010101010101010101010010101100011101011 3
1!
b11000101010101010101010101010101010101 E
b11000 F
b11111111111111111111101010111110 G
b101000101010101011010101010101010101010010101010110101010101010101010101010101101011101010110100101010101010101010101101010100010101010101010101010101010101010101010101010101110000000000000000000000000000010101 H
b10000010000000000000000000000000000001000010101010101010101010010101100011101011 I
b1010100000000000000000000000000000001 J
b10001100000000000000000000000000000000 K
b100011000000000000000000000000000000001 L
b110 M
#65
0!
#70
b100000101010101010101010101010101010101 %
b1100011111111111111111111101011000101101011 &
b11000010000000000000000000000000000001100011111111111111111111101011000101101011 '
b111 +
b111000101010101011010101010101010101010010101010110101010101010101010101010101101011101010110100101010101010101010101101010100010101010101010101010101010101010101010101010101110000000000000000000000000000010101 /
b11100101010101010101010101010101010101 1
b110000101010101011010101010101010101010010101010110101010101010101010101010101101011101010110100101010101010101010101101010100010101010101010101010101010101010101010101010101110000000000000000000000000000010101 2
b10100010000000000000000000000000000001010010101010101010101010010101100011101011 3
1!
b11100101010101010101010101010101010101 E
b11100 F
b11111111111111111111101011000010 G
b110000101010101011010101010101010101010010101010110101010101010101010101010101101011101010110100101010101010101010101101010100010101010101010101010101010101010101010101010101110000000000000000000000000000010101 H
b10100010000000000000000000000000000001010010101010101010101010010101100011101011 I
b11010100000000000000000000000000010000 K
b110101000000000000000000000000000100001 L
b111 M
#75
0!
#80
1"
b10000000000000000000000000000000010101 $
b100100101010101010101010101010101010101 %
b1110011111111111111111111101011001001101011 &
b11100010000000000000000000000000000001110011111111111111111111101011001001101011 '
1)
b1000 +
b1000000101010101011010101010101010101010010101010110101010101010101010101010101101011101010110100101010101010101010101101010100010101010101010101000000000000000000000000000010000000000000000000000000000000010101 /
b100000101010101010101010101010101010101 1
b111000101010101011010101010101010101010010101010110101010101010101010101010101101011101010110100101010101010101010101101010100010101010101010101010101010101010101010101010101110000000000000000000000000000010101 2
b11000010000000000000000000000000000001100011111111111111111111101011000101101011 3
1!
b100000101010101010101010101010101010101 E
b100000 F
b11111111111111111111101011000110 G
b111000101010101011010101010101010101010010101010110101010101010101010101010101101011101010110100101010101010101010101101010100010101010101010101010101010101010101010101010101110000000000000000000000000000010101 H
b11000010000000000000000000000000000001100011111111111111111111101011000101101011 I
b1010100000000000000000000000000000000 J
b11010100000000000000000000000000010100 K
b110101000000000000000000000000000101001 L
b1000 M
